{"type": "machine_unavailable", "resources": "37", "timestamp": 23.24}
{"type": "machine_available", "resources": "37", "timestamp": 1823.24}
{"type": "machine_unavailable", "resources": "79", "timestamp": 51.57}
{"type": "machine_available", "resources": "79", "timestamp": 1851.57}
{"type": "machine_unavailable", "resources": "26", "timestamp": 83.38}
{"type": "machine_available", "resources": "26", "timestamp": 1883.38}
{"type": "machine_unavailable", "resources": "6", "timestamp": 196.45}
{"type": "machine_available", "resources": "6", "timestamp": 1996.45}
{"type": "machine_unavailable", "resources": "82", "timestamp": 211.64}
{"type": "machine_available", "resources": "82", "timestamp": 2011.64}
{"type": "machine_unavailable", "resources": "10", "timestamp": 215.96}
{"type": "machine_available", "resources": "10", "timestamp": 2015.96}
{"type": "machine_unavailable", "resources": "66", "timestamp": 234.53}
{"type": "machine_available", "resources": "66", "timestamp": 2034.53}
{"type": "machine_unavailable", "resources": "31", "timestamp": 381.6}
{"type": "machine_available", "resources": "31", "timestamp": 2181.6}
{"type": "machine_unavailable", "resources": "20", "timestamp": 382.39}
{"type": "machine_available", "resources": "20", "timestamp": 2182.39}
{"type": "machine_unavailable", "resources": "76", "timestamp": 454.14}
{"type": "machine_available", "resources": "76", "timestamp": 2254.14}
{"type": "machine_unavailable", "resources": "51", "timestamp": 476.84}
{"type": "machine_available", "resources": "51", "timestamp": 2276.84}
{"type": "machine_unavailable", "resources": "83", "timestamp": 584.29}
{"type": "machine_available", "resources": "83", "timestamp": 2384.29}
{"type": "machine_unavailable", "resources": "8", "timestamp": 597.14}
{"type": "machine_available", "resources": "8", "timestamp": 2397.14}
{"type": "machine_unavailable", "resources": "72", "timestamp": 612.54}
{"type": "machine_available", "resources": "72", "timestamp": 2412.54}
{"type": "machine_unavailable", "resources": "97", "timestamp": 645.98}
{"type": "machine_available", "resources": "97", "timestamp": 2445.98}
{"type": "machine_unavailable", "resources": "12", "timestamp": 662.78}
{"type": "machine_available", "resources": "12", "timestamp": 2462.78}
{"type": "machine_unavailable", "resources": "81", "timestamp": 696.4}
{"type": "machine_available", "resources": "81", "timestamp": 2496.4}
{"type": "machine_unavailable", "resources": "14", "timestamp": 721.19}
{"type": "machine_available", "resources": "14", "timestamp": 2521.19}
{"type": "machine_unavailable", "resources": "39", "timestamp": 749.71}
{"type": "machine_available", "resources": "39", "timestamp": 2549.71}
{"type": "machine_unavailable", "resources": "32", "timestamp": 753.87}
{"type": "machine_available", "resources": "32", "timestamp": 2553.87}
{"type": "machine_unavailable", "resources": "17", "timestamp": 775.09}
{"type": "machine_available", "resources": "17", "timestamp": 2575.09}
{"type": "machine_unavailable", "resources": "40", "timestamp": 783.45}
{"type": "machine_available", "resources": "40", "timestamp": 2583.45}
{"type": "machine_unavailable", "resources": "3", "timestamp": 787.23}
{"type": "machine_available", "resources": "3", "timestamp": 2587.23}
{"type": "machine_unavailable", "resources": "95", "timestamp": 803.05}
{"type": "machine_available", "resources": "95", "timestamp": 2603.05}
{"type": "machine_unavailable", "resources": "22", "timestamp": 824.19}
{"type": "machine_available", "resources": "22", "timestamp": 2624.19}
{"type": "machine_unavailable", "resources": "23", "timestamp": 846.44}
{"type": "machine_available", "resources": "23", "timestamp": 2646.44}
{"type": "machine_unavailable", "resources": "42", "timestamp": 865.6}
{"type": "machine_available", "resources": "42", "timestamp": 2665.6}
{"type": "machine_unavailable", "resources": "84", "timestamp": 887.19}
{"type": "machine_available", "resources": "84", "timestamp": 2687.19}
{"type": "machine_unavailable", "resources": "43", "timestamp": 976.15}
{"type": "machine_available", "resources": "43", "timestamp": 2776.15}
{"type": "machine_unavailable", "resources": "13", "timestamp": 978.27}
{"type": "machine_available", "resources": "13", "timestamp": 2778.27}
{"type": "machine_unavailable", "resources": "62", "timestamp": 997.56}
{"type": "machine_available", "resources": "62", "timestamp": 2797.56}
{"type": "machine_unavailable", "resources": "61", "timestamp": 1006.66}
{"type": "machine_available", "resources": "61", "timestamp": 2806.66}
{"type": "machine_unavailable", "resources": "88", "timestamp": 1015.44}
{"type": "machine_available", "resources": "88", "timestamp": 2815.44}
{"type": "machine_unavailable", "resources": "21", "timestamp": 1078.45}
{"type": "machine_available", "resources": "21", "timestamp": 2878.45}
{"type": "machine_unavailable", "resources": "65", "timestamp": 1113.21}
{"type": "machine_available", "resources": "65", "timestamp": 2913.21}
{"type": "machine_unavailable", "resources": "85", "timestamp": 1123.27}
{"type": "machine_available", "resources": "85", "timestamp": 2923.27}
{"type": "machine_unavailable", "resources": "27", "timestamp": 1130.94}
{"type": "machine_available", "resources": "27", "timestamp": 2930.94}
{"type": "machine_unavailable", "resources": "55", "timestamp": 1150.38}
{"type": "machine_available", "resources": "55", "timestamp": 2950.38}
{"type": "machine_unavailable", "resources": "38", "timestamp": 1219.01}
{"type": "machine_available", "resources": "38", "timestamp": 3019.01}
{"type": "machine_unavailable", "resources": "48", "timestamp": 1240.46}
{"type": "machine_available", "resources": "48", "timestamp": 3040.46}
{"type": "machine_unavailable", "resources": "90", "timestamp": 1272.95}
{"type": "machine_available", "resources": "90", "timestamp": 3072.95}
{"type": "machine_unavailable", "resources": "94", "timestamp": 1292.07}
{"type": "machine_available", "resources": "94", "timestamp": 3092.07}
{"type": "machine_unavailable", "resources": "67", "timestamp": 1297.25}
{"type": "machine_available", "resources": "67", "timestamp": 3097.25}
{"type": "machine_unavailable", "resources": "2", "timestamp": 1379.33}
{"type": "machine_available", "resources": "2", "timestamp": 3179.33}
{"type": "machine_unavailable", "resources": "15", "timestamp": 1414.4}
{"type": "machine_available", "resources": "15", "timestamp": 3214.4}
{"type": "machine_unavailable", "resources": "71", "timestamp": 1458.8}
{"type": "machine_available", "resources": "71", "timestamp": 3258.8}
{"type": "machine_unavailable", "resources": "70", "timestamp": 1459.8}
{"type": "machine_available", "resources": "70", "timestamp": 3259.8}
{"type": "machine_unavailable", "resources": "50", "timestamp": 1535.67}
{"type": "machine_available", "resources": "50", "timestamp": 3335.67}
{"type": "machine_unavailable", "resources": "68", "timestamp": 1574.45}
{"type": "machine_available", "resources": "68", "timestamp": 3374.45}
{"type": "machine_unavailable", "resources": "56", "timestamp": 1575.58}
{"type": "machine_available", "resources": "56", "timestamp": 3375.58}
{"type": "machine_unavailable", "resources": "18", "timestamp": 1607.78}
{"type": "machine_available", "resources": "18", "timestamp": 3407.78}
{"type": "machine_unavailable", "resources": "63", "timestamp": 1659.76}
{"type": "machine_available", "resources": "63", "timestamp": 3459.76}
{"type": "machine_unavailable", "resources": "47", "timestamp": 1688.15}
{"type": "machine_available", "resources": "47", "timestamp": 3488.15}
{"type": "machine_unavailable", "resources": "9", "timestamp": 1697.37}
{"type": "machine_available", "resources": "9", "timestamp": 3497.37}
{"type": "machine_unavailable", "resources": "25", "timestamp": 1738.89}
{"type": "machine_available", "resources": "25", "timestamp": 3538.89}
{"type": "machine_unavailable", "resources": "60", "timestamp": 1754.59}
{"type": "machine_available", "resources": "60", "timestamp": 3554.59}
{"type": "machine_unavailable", "resources": "54", "timestamp": 1754.69}
{"type": "machine_available", "resources": "54", "timestamp": 3554.69}
{"type": "machine_unavailable", "resources": "99", "timestamp": 1854.02}
{"type": "machine_available", "resources": "99", "timestamp": 3654.02}
{"type": "machine_unavailable", "resources": "98", "timestamp": 1864.4}
{"type": "machine_available", "resources": "98", "timestamp": 3664.4}
{"type": "machine_unavailable", "resources": "1", "timestamp": 1930.03}
{"type": "machine_available", "resources": "1", "timestamp": 3730.03}
{"type": "machine_unavailable", "resources": "0", "timestamp": 1999.81}
{"type": "machine_available", "resources": "0", "timestamp": 3799.81}
{"type": "machine_unavailable", "resources": "57", "timestamp": 2019.35}
{"type": "machine_available", "resources": "57", "timestamp": 3819.35}
{"type": "machine_unavailable", "resources": "45", "timestamp": 2050.88}
{"type": "machine_available", "resources": "45", "timestamp": 3850.88}
{"type": "machine_unavailable", "resources": "74", "timestamp": 2071.03}
{"type": "machine_available", "resources": "74", "timestamp": 3871.03}
{"type": "machine_unavailable", "resources": "58", "timestamp": 2110.08}
{"type": "machine_available", "resources": "58", "timestamp": 3910.08}
{"type": "machine_unavailable", "resources": "89", "timestamp": 2113.72}
{"type": "machine_available", "resources": "89", "timestamp": 3913.72}
{"type": "machine_unavailable", "resources": "87", "timestamp": 2135.6}
{"type": "machine_available", "resources": "87", "timestamp": 3935.6}
{"type": "machine_unavailable", "resources": "92", "timestamp": 2169.22}
{"type": "machine_available", "resources": "92", "timestamp": 3969.22}
{"type": "machine_unavailable", "resources": "24", "timestamp": 2183.21}
{"type": "machine_available", "resources": "24", "timestamp": 3983.21}
{"type": "machine_unavailable", "resources": "19", "timestamp": 2210.53}
{"type": "machine_available", "resources": "19", "timestamp": 4010.53}
{"type": "machine_unavailable", "resources": "79", "timestamp": 2236.35}
{"type": "machine_available", "resources": "79", "timestamp": 4036.35}
{"type": "machine_unavailable", "resources": "30", "timestamp": 2263.66}
{"type": "machine_available", "resources": "30", "timestamp": 4063.66}
{"type": "machine_unavailable", "resources": "64", "timestamp": 2275.3}
{"type": "machine_available", "resources": "64", "timestamp": 4075.3}
{"type": "machine_unavailable", "resources": "37", "timestamp": 2279.94}
{"type": "machine_available", "resources": "37", "timestamp": 4079.94}
{"type": "machine_unavailable", "resources": "53", "timestamp": 2280.71}
{"type": "machine_available", "resources": "53", "timestamp": 4080.71}
{"type": "machine_unavailable", "resources": "51", "timestamp": 2320.98}
{"type": "machine_available", "resources": "51", "timestamp": 4120.98}
{"type": "machine_unavailable", "resources": "35", "timestamp": 2374.92}
{"type": "machine_available", "resources": "35", "timestamp": 4174.92}
{"type": "machine_unavailable", "resources": "59", "timestamp": 2477.2}
{"type": "machine_available", "resources": "59", "timestamp": 4277.2}
{"type": "machine_unavailable", "resources": "31", "timestamp": 2501.58}
{"type": "machine_available", "resources": "31", "timestamp": 4301.58}
{"type": "machine_unavailable", "resources": "80", "timestamp": 2502.96}
{"type": "machine_available", "resources": "80", "timestamp": 4302.96}
{"type": "machine_unavailable", "resources": "26", "timestamp": 2521.05}
{"type": "machine_available", "resources": "26", "timestamp": 4321.05}
{"type": "machine_unavailable", "resources": "14", "timestamp": 2547.68}
{"type": "machine_available", "resources": "14", "timestamp": 4347.68}
{"type": "machine_unavailable", "resources": "97", "timestamp": 2567.36}
{"type": "machine_available", "resources": "97", "timestamp": 4367.36}
{"type": "machine_unavailable", "resources": "66", "timestamp": 2576.25}
{"type": "machine_available", "resources": "66", "timestamp": 4376.25}
{"type": "machine_unavailable", "resources": "52", "timestamp": 2605.94}
{"type": "machine_available", "resources": "52", "timestamp": 4405.94}
{"type": "machine_unavailable", "resources": "93", "timestamp": 2607.89}
{"type": "machine_available", "resources": "93", "timestamp": 4407.89}
{"type": "machine_unavailable", "resources": "3", "timestamp": 2609.95}
{"type": "machine_available", "resources": "3", "timestamp": 4409.95}
{"type": "machine_unavailable", "resources": "83", "timestamp": 2637.74}
{"type": "machine_available", "resources": "83", "timestamp": 4437.74}
{"type": "machine_unavailable", "resources": "76", "timestamp": 2643.49}
{"type": "machine_available", "resources": "76", "timestamp": 4443.49}
{"type": "machine_unavailable", "resources": "49", "timestamp": 2661.35}
{"type": "machine_available", "resources": "49", "timestamp": 4461.35}
{"type": "machine_unavailable", "resources": "69", "timestamp": 2667.69}
{"type": "machine_available", "resources": "69", "timestamp": 4467.69}
{"type": "machine_unavailable", "resources": "82", "timestamp": 2723.56}
{"type": "machine_available", "resources": "82", "timestamp": 4523.56}
{"type": "machine_unavailable", "resources": "23", "timestamp": 2788.82}
{"type": "machine_available", "resources": "23", "timestamp": 4588.82}
{"type": "machine_unavailable", "resources": "84", "timestamp": 2798.1}
{"type": "machine_available", "resources": "84", "timestamp": 4598.1}
{"type": "machine_unavailable", "resources": "16", "timestamp": 2812.83}
{"type": "machine_available", "resources": "16", "timestamp": 4612.83}
{"type": "machine_unavailable", "resources": "46", "timestamp": 2835.02}
{"type": "machine_available", "resources": "46", "timestamp": 4635.02}
{"type": "machine_unavailable", "resources": "5", "timestamp": 2897.78}
{"type": "machine_available", "resources": "5", "timestamp": 4697.78}
{"type": "machine_unavailable", "resources": "78", "timestamp": 2926.88}
{"type": "machine_available", "resources": "78", "timestamp": 4726.88}
{"type": "machine_unavailable", "resources": "20", "timestamp": 2932.91}
{"type": "machine_available", "resources": "20", "timestamp": 4732.91}
{"type": "machine_unavailable", "resources": "43", "timestamp": 2951.79}
{"type": "machine_available", "resources": "43", "timestamp": 4751.79}
{"type": "machine_unavailable", "resources": "95", "timestamp": 2995.64}
{"type": "machine_available", "resources": "95", "timestamp": 4795.64}
{"type": "machine_unavailable", "resources": "65", "timestamp": 3053.33}
{"type": "machine_available", "resources": "65", "timestamp": 4853.33}
{"type": "machine_unavailable", "resources": "29", "timestamp": 3067.37}
{"type": "machine_available", "resources": "29", "timestamp": 4867.37}
{"type": "machine_unavailable", "resources": "12", "timestamp": 3079.57}
{"type": "machine_available", "resources": "12", "timestamp": 4879.57}
{"type": "machine_unavailable", "resources": "40", "timestamp": 3084.24}
{"type": "machine_available", "resources": "40", "timestamp": 4884.24}
{"type": "machine_unavailable", "resources": "62", "timestamp": 3144.2}
{"type": "machine_available", "resources": "62", "timestamp": 4944.2}
{"type": "machine_unavailable", "resources": "81", "timestamp": 3174.01}
{"type": "machine_available", "resources": "81", "timestamp": 4974.01}
{"type": "machine_unavailable", "resources": "90", "timestamp": 3178.96}
{"type": "machine_available", "resources": "90", "timestamp": 4978.96}
{"type": "machine_unavailable", "resources": "4", "timestamp": 3182.56}
{"type": "machine_available", "resources": "4", "timestamp": 4982.56}
{"type": "machine_unavailable", "resources": "96", "timestamp": 3245.24}
{"type": "machine_available", "resources": "96", "timestamp": 5045.24}
{"type": "machine_unavailable", "resources": "67", "timestamp": 3252.83}
{"type": "machine_available", "resources": "67", "timestamp": 5052.83}
{"type": "machine_unavailable", "resources": "34", "timestamp": 3253.79}
{"type": "machine_available", "resources": "34", "timestamp": 5053.79}
{"type": "machine_unavailable", "resources": "13", "timestamp": 3259.22}
{"type": "machine_available", "resources": "13", "timestamp": 5059.22}
{"type": "machine_unavailable", "resources": "42", "timestamp": 3322.9}
{"type": "machine_available", "resources": "42", "timestamp": 5122.9}
{"type": "machine_unavailable", "resources": "44", "timestamp": 3328.93}
{"type": "machine_available", "resources": "44", "timestamp": 5128.93}
{"type": "machine_unavailable", "resources": "6", "timestamp": 3349.46}
{"type": "machine_available", "resources": "6", "timestamp": 5149.46}
{"type": "machine_unavailable", "resources": "28", "timestamp": 3357.24}
{"type": "machine_available", "resources": "28", "timestamp": 5157.24}
{"type": "machine_unavailable", "resources": "94", "timestamp": 3371.08}
{"type": "machine_available", "resources": "94", "timestamp": 5171.08}
{"type": "machine_unavailable", "resources": "72", "timestamp": 3405.74}
{"type": "machine_available", "resources": "72", "timestamp": 5205.74}
{"type": "machine_unavailable", "resources": "70", "timestamp": 3427.07}
{"type": "machine_available", "resources": "70", "timestamp": 5227.07}
{"type": "machine_unavailable", "resources": "61", "timestamp": 3429.27}
{"type": "machine_available", "resources": "61", "timestamp": 5229.27}
{"type": "machine_unavailable", "resources": "75", "timestamp": 3528.69}
{"type": "machine_available", "resources": "75", "timestamp": 5328.69}
{"type": "machine_unavailable", "resources": "41", "timestamp": 3549.39}
{"type": "machine_available", "resources": "41", "timestamp": 5349.39}
{"type": "machine_unavailable", "resources": "15", "timestamp": 3580.91}
{"type": "machine_available", "resources": "15", "timestamp": 5380.91}
{"type": "machine_unavailable", "resources": "60", "timestamp": 3599.55}
{"type": "machine_available", "resources": "60", "timestamp": 5399.55}
{"type": "machine_unavailable", "resources": "56", "timestamp": 3619.56}
{"type": "machine_available", "resources": "56", "timestamp": 5419.56}
{"type": "machine_unavailable", "resources": "22", "timestamp": 3625.49}
{"type": "machine_available", "resources": "22", "timestamp": 5425.49}
{"type": "machine_unavailable", "resources": "55", "timestamp": 3628.2}
{"type": "machine_available", "resources": "55", "timestamp": 5428.2}
{"type": "machine_unavailable", "resources": "68", "timestamp": 3643.08}
{"type": "machine_available", "resources": "68", "timestamp": 5443.08}
{"type": "machine_unavailable", "resources": "27", "timestamp": 3677.03}
{"type": "machine_available", "resources": "27", "timestamp": 5477.03}
{"type": "machine_unavailable", "resources": "18", "timestamp": 3678.96}
{"type": "machine_available", "resources": "18", "timestamp": 5478.96}
{"type": "machine_unavailable", "resources": "2", "timestamp": 3701.33}
{"type": "machine_available", "resources": "2", "timestamp": 5501.33}
{"type": "machine_unavailable", "resources": "32", "timestamp": 3730.26}
{"type": "machine_available", "resources": "32", "timestamp": 5530.26}
{"type": "machine_unavailable", "resources": "88", "timestamp": 3744.23}
{"type": "machine_available", "resources": "88", "timestamp": 5544.23}
{"type": "machine_unavailable", "resources": "10", "timestamp": 3760.77}
{"type": "machine_available", "resources": "10", "timestamp": 5560.77}
{"type": "machine_unavailable", "resources": "33", "timestamp": 3844.63}
{"type": "machine_available", "resources": "33", "timestamp": 5644.63}
{"type": "machine_unavailable", "resources": "36", "timestamp": 3859.3}
{"type": "machine_available", "resources": "36", "timestamp": 5659.3}
{"type": "machine_unavailable", "resources": "17", "timestamp": 3877.2}
{"type": "machine_available", "resources": "17", "timestamp": 5677.2}
{"type": "machine_unavailable", "resources": "38", "timestamp": 3910.11}
{"type": "machine_available", "resources": "38", "timestamp": 5710.11}
{"type": "machine_unavailable", "resources": "85", "timestamp": 3956.39}
{"type": "machine_available", "resources": "85", "timestamp": 5756.39}
{"type": "machine_unavailable", "resources": "48", "timestamp": 3960.0}
{"type": "machine_available", "resources": "48", "timestamp": 5760.0}
{"type": "machine_unavailable", "resources": "57", "timestamp": 4034.25}
{"type": "machine_available", "resources": "57", "timestamp": 5834.25}
{"type": "machine_unavailable", "resources": "71", "timestamp": 4068.31}
{"type": "machine_available", "resources": "71", "timestamp": 5868.31}
{"type": "machine_unavailable", "resources": "64", "timestamp": 4098.47}
{"type": "machine_available", "resources": "64", "timestamp": 5898.47}
{"type": "machine_unavailable", "resources": "98", "timestamp": 4100.58}
{"type": "machine_available", "resources": "98", "timestamp": 5900.58}
{"type": "machine_unavailable", "resources": "53", "timestamp": 4135.66}
{"type": "machine_available", "resources": "53", "timestamp": 5935.66}
{"type": "machine_unavailable", "resources": "99", "timestamp": 4234.72}
{"type": "machine_available", "resources": "99", "timestamp": 6034.72}
{"type": "machine_unavailable", "resources": "50", "timestamp": 4245.94}
{"type": "machine_available", "resources": "50", "timestamp": 6045.94}
{"type": "machine_unavailable", "resources": "1", "timestamp": 4291.25}
{"type": "machine_available", "resources": "1", "timestamp": 6091.25}
{"type": "machine_unavailable", "resources": "9", "timestamp": 4348.11}
{"type": "machine_available", "resources": "9", "timestamp": 6148.11}
{"type": "machine_unavailable", "resources": "8", "timestamp": 4369.56}
{"type": "machine_available", "resources": "8", "timestamp": 6169.56}
{"type": "machine_unavailable", "resources": "89", "timestamp": 4419.5}
{"type": "machine_available", "resources": "89", "timestamp": 6219.5}
{"type": "machine_unavailable", "resources": "63", "timestamp": 4425.03}
{"type": "machine_available", "resources": "63", "timestamp": 6225.03}
{"type": "machine_unavailable", "resources": "3", "timestamp": 4437.65}
{"type": "machine_available", "resources": "3", "timestamp": 6237.65}
{"type": "machine_unavailable", "resources": "54", "timestamp": 4452.33}
{"type": "machine_available", "resources": "54", "timestamp": 6252.33}
{"type": "machine_unavailable", "resources": "97", "timestamp": 4455.02}
{"type": "machine_available", "resources": "97", "timestamp": 6255.02}
{"type": "machine_unavailable", "resources": "80", "timestamp": 4456.39}
{"type": "machine_available", "resources": "80", "timestamp": 6256.39}
{"type": "machine_unavailable", "resources": "74", "timestamp": 4458.78}
{"type": "machine_available", "resources": "74", "timestamp": 6258.78}
{"type": "machine_unavailable", "resources": "73", "timestamp": 4498.25}
{"type": "machine_available", "resources": "73", "timestamp": 6298.25}
{"type": "machine_unavailable", "resources": "45", "timestamp": 4551.23}
{"type": "machine_available", "resources": "45", "timestamp": 6351.23}
{"type": "machine_unavailable", "resources": "69", "timestamp": 4572.32}
{"type": "machine_available", "resources": "69", "timestamp": 6372.32}
{"type": "machine_unavailable", "resources": "49", "timestamp": 4589.92}
{"type": "machine_available", "resources": "49", "timestamp": 6389.92}
{"type": "machine_unavailable", "resources": "7", "timestamp": 4602.89}
{"type": "machine_available", "resources": "7", "timestamp": 6402.89}
{"type": "machine_unavailable", "resources": "82", "timestamp": 4618.12}
{"type": "machine_available", "resources": "82", "timestamp": 6418.12}
{"type": "machine_unavailable", "resources": "35", "timestamp": 4707.96}
{"type": "machine_available", "resources": "35", "timestamp": 6507.96}
{"type": "machine_unavailable", "resources": "52", "timestamp": 4753.14}
{"type": "machine_available", "resources": "52", "timestamp": 6553.14}
{"type": "machine_unavailable", "resources": "39", "timestamp": 4754.98}
{"type": "machine_available", "resources": "39", "timestamp": 6554.98}
{"type": "machine_unavailable", "resources": "87", "timestamp": 4807.46}
{"type": "machine_available", "resources": "87", "timestamp": 6607.46}
{"type": "machine_unavailable", "resources": "78", "timestamp": 4825.58}
{"type": "machine_available", "resources": "78", "timestamp": 6625.58}
{"type": "machine_unavailable", "resources": "84", "timestamp": 4835.56}
{"type": "machine_available", "resources": "84", "timestamp": 6635.56}
{"type": "machine_unavailable", "resources": "0", "timestamp": 4935.95}
{"type": "machine_available", "resources": "0", "timestamp": 6735.95}
{"type": "machine_unavailable", "resources": "83", "timestamp": 4936.8}
{"type": "machine_available", "resources": "83", "timestamp": 6736.8}
{"type": "machine_unavailable", "resources": "12", "timestamp": 4977.76}
{"type": "machine_available", "resources": "12", "timestamp": 6777.76}
{"type": "machine_unavailable", "resources": "14", "timestamp": 4984.6}
{"type": "machine_available", "resources": "14", "timestamp": 6784.6}
{"type": "machine_unavailable", "resources": "47", "timestamp": 5013.16}
{"type": "machine_available", "resources": "47", "timestamp": 6813.16}
{"type": "machine_unavailable", "resources": "79", "timestamp": 5021.84}
{"type": "machine_available", "resources": "79", "timestamp": 6821.84}
{"type": "machine_unavailable", "resources": "59", "timestamp": 5038.46}
{"type": "machine_available", "resources": "59", "timestamp": 6838.46}
{"type": "machine_unavailable", "resources": "62", "timestamp": 5107.04}
{"type": "machine_available", "resources": "62", "timestamp": 6907.04}
{"type": "machine_unavailable", "resources": "51", "timestamp": 5111.55}
{"type": "machine_available", "resources": "51", "timestamp": 6911.55}
{"type": "machine_unavailable", "resources": "11", "timestamp": 5173.51}
{"type": "machine_available", "resources": "11", "timestamp": 6973.51}
{"type": "machine_unavailable", "resources": "70", "timestamp": 5258.04}
{"type": "machine_available", "resources": "70", "timestamp": 7058.04}
{"type": "machine_unavailable", "resources": "90", "timestamp": 5278.35}
{"type": "machine_available", "resources": "90", "timestamp": 7078.35}
{"type": "machine_unavailable", "resources": "31", "timestamp": 5290.19}
{"type": "machine_available", "resources": "31", "timestamp": 7090.19}
{"type": "machine_unavailable", "resources": "77", "timestamp": 5300.7}
{"type": "machine_available", "resources": "77", "timestamp": 7100.7}
{"type": "machine_unavailable", "resources": "26", "timestamp": 5402.54}
{"type": "machine_available", "resources": "26", "timestamp": 7202.54}
{"type": "machine_unavailable", "resources": "5", "timestamp": 5440.27}
{"type": "machine_available", "resources": "5", "timestamp": 7240.27}
{"type": "machine_unavailable", "resources": "19", "timestamp": 5440.43}
{"type": "machine_available", "resources": "19", "timestamp": 7240.43}
{"type": "machine_unavailable", "resources": "81", "timestamp": 5452.0}
{"type": "machine_available", "resources": "81", "timestamp": 7252.0}
{"type": "machine_unavailable", "resources": "34", "timestamp": 5517.46}
{"type": "machine_available", "resources": "34", "timestamp": 7317.46}
{"type": "machine_unavailable", "resources": "65", "timestamp": 5600.33}
{"type": "machine_available", "resources": "65", "timestamp": 7400.33}
{"type": "machine_unavailable", "resources": "20", "timestamp": 5632.43}
{"type": "machine_available", "resources": "20", "timestamp": 7432.43}
{"type": "machine_unavailable", "resources": "91", "timestamp": 5742.1}
{"type": "machine_available", "resources": "91", "timestamp": 7542.1}
{"type": "machine_unavailable", "resources": "88", "timestamp": 5748.27}
{"type": "machine_available", "resources": "88", "timestamp": 7548.27}
{"type": "machine_unavailable", "resources": "37", "timestamp": 5760.12}
{"type": "machine_available", "resources": "37", "timestamp": 7560.12}
{"type": "machine_unavailable", "resources": "33", "timestamp": 5773.01}
{"type": "machine_available", "resources": "33", "timestamp": 7573.01}
{"type": "machine_unavailable", "resources": "27", "timestamp": 5775.67}
{"type": "machine_available", "resources": "27", "timestamp": 7575.67}
{"type": "machine_unavailable", "resources": "28", "timestamp": 5793.74}
{"type": "machine_available", "resources": "28", "timestamp": 7593.74}
{"type": "machine_unavailable", "resources": "32", "timestamp": 5851.5}
{"type": "machine_available", "resources": "32", "timestamp": 7651.5}
{"type": "machine_unavailable", "resources": "42", "timestamp": 5852.12}
{"type": "machine_available", "resources": "42", "timestamp": 7652.12}
{"type": "machine_unavailable", "resources": "60", "timestamp": 5881.61}
{"type": "machine_available", "resources": "60", "timestamp": 7681.61}
{"type": "machine_unavailable", "resources": "2", "timestamp": 5890.24}
{"type": "machine_available", "resources": "2", "timestamp": 7690.24}
{"type": "machine_unavailable", "resources": "48", "timestamp": 5890.92}
{"type": "machine_available", "resources": "48", "timestamp": 7690.92}
{"type": "machine_unavailable", "resources": "75", "timestamp": 5949.6}
{"type": "machine_available", "resources": "75", "timestamp": 7749.6}
{"type": "machine_unavailable", "resources": "67", "timestamp": 5954.78}
{"type": "machine_available", "resources": "67", "timestamp": 7754.78}
{"type": "machine_unavailable", "resources": "6", "timestamp": 5981.68}
{"type": "machine_available", "resources": "6", "timestamp": 7781.68}
{"type": "machine_unavailable", "resources": "96", "timestamp": 5991.17}
{"type": "machine_available", "resources": "96", "timestamp": 7791.17}
{"type": "machine_unavailable", "resources": "61", "timestamp": 6045.55}
{"type": "machine_available", "resources": "61", "timestamp": 7845.55}
{"type": "machine_unavailable", "resources": "58", "timestamp": 6046.49}
{"type": "machine_available", "resources": "58", "timestamp": 7846.49}
{"type": "machine_unavailable", "resources": "24", "timestamp": 6049.99}
{"type": "machine_available", "resources": "24", "timestamp": 7849.99}
{"type": "machine_unavailable", "resources": "98", "timestamp": 6091.33}
{"type": "machine_available", "resources": "98", "timestamp": 7891.33}
{"type": "machine_unavailable", "resources": "64", "timestamp": 6095.04}
{"type": "machine_available", "resources": "64", "timestamp": 7895.04}
{"type": "machine_unavailable", "resources": "53", "timestamp": 6136.74}
{"type": "machine_available", "resources": "53", "timestamp": 7936.74}
{"type": "machine_unavailable", "resources": "1", "timestamp": 6154.18}
{"type": "machine_available", "resources": "1", "timestamp": 7954.18}
{"type": "machine_unavailable", "resources": "56", "timestamp": 6224.46}
{"type": "machine_available", "resources": "56", "timestamp": 8024.46}
{"type": "machine_unavailable", "resources": "72", "timestamp": 6227.1}
{"type": "machine_available", "resources": "72", "timestamp": 8027.1}
{"type": "machine_unavailable", "resources": "22", "timestamp": 6273.11}
{"type": "machine_available", "resources": "22", "timestamp": 8073.11}
{"type": "machine_unavailable", "resources": "25", "timestamp": 6330.73}
{"type": "machine_available", "resources": "25", "timestamp": 8130.73}
{"type": "machine_unavailable", "resources": "3", "timestamp": 6334.69}
{"type": "machine_available", "resources": "3", "timestamp": 8134.69}
{"type": "machine_unavailable", "resources": "86", "timestamp": 6341.28}
{"type": "machine_available", "resources": "86", "timestamp": 8141.28}
{"type": "machine_unavailable", "resources": "8", "timestamp": 6348.72}
{"type": "machine_available", "resources": "8", "timestamp": 8148.72}
{"type": "machine_unavailable", "resources": "29", "timestamp": 6351.65}
{"type": "machine_available", "resources": "29", "timestamp": 8151.65}
{"type": "machine_unavailable", "resources": "57", "timestamp": 6362.41}
{"type": "machine_available", "resources": "57", "timestamp": 8162.41}
{"type": "machine_unavailable", "resources": "63", "timestamp": 6392.09}
{"type": "machine_available", "resources": "63", "timestamp": 8192.09}
{"type": "machine_unavailable", "resources": "97", "timestamp": 6405.19}
{"type": "machine_available", "resources": "97", "timestamp": 8205.19}
{"type": "machine_unavailable", "resources": "4", "timestamp": 6413.23}
{"type": "machine_available", "resources": "4", "timestamp": 8213.23}
{"type": "machine_unavailable", "resources": "43", "timestamp": 6429.06}
{"type": "machine_available", "resources": "43", "timestamp": 8229.06}
{"type": "machine_unavailable", "resources": "40", "timestamp": 6468.72}
{"type": "machine_available", "resources": "40", "timestamp": 8268.72}
{"type": "machine_unavailable", "resources": "21", "timestamp": 6474.97}
{"type": "machine_available", "resources": "21", "timestamp": 8274.97}
{"type": "machine_unavailable", "resources": "17", "timestamp": 6481.49}
{"type": "machine_available", "resources": "17", "timestamp": 8281.49}
{"type": "machine_unavailable", "resources": "99", "timestamp": 6489.51}
{"type": "machine_available", "resources": "99", "timestamp": 8289.51}
{"type": "machine_unavailable", "resources": "68", "timestamp": 6504.31}
{"type": "machine_available", "resources": "68", "timestamp": 8304.31}
{"type": "machine_unavailable", "resources": "66", "timestamp": 6504.91}
{"type": "machine_available", "resources": "66", "timestamp": 8304.91}
{"type": "machine_unavailable", "resources": "92", "timestamp": 6523.63}
{"type": "machine_available", "resources": "92", "timestamp": 8323.63}
{"type": "machine_unavailable", "resources": "41", "timestamp": 6549.13}
{"type": "machine_available", "resources": "41", "timestamp": 8349.13}
{"type": "machine_unavailable", "resources": "93", "timestamp": 6601.38}
{"type": "machine_available", "resources": "93", "timestamp": 8401.38}
{"type": "machine_unavailable", "resources": "74", "timestamp": 6733.25}
{"type": "machine_available", "resources": "74", "timestamp": 8533.25}
{"type": "machine_unavailable", "resources": "7", "timestamp": 6768.35}
{"type": "machine_available", "resources": "7", "timestamp": 8568.35}
{"type": "machine_unavailable", "resources": "82", "timestamp": 6790.1}
{"type": "machine_available", "resources": "82", "timestamp": 8590.1}
{"type": "machine_unavailable", "resources": "39", "timestamp": 6899.22}
{"type": "machine_available", "resources": "39", "timestamp": 8699.22}
{"type": "machine_unavailable", "resources": "35", "timestamp": 6938.32}
{"type": "machine_available", "resources": "35", "timestamp": 8738.32}
{"type": "machine_unavailable", "resources": "18", "timestamp": 6943.24}
{"type": "machine_available", "resources": "18", "timestamp": 8743.24}
{"type": "machine_unavailable", "resources": "47", "timestamp": 6955.67}
{"type": "machine_available", "resources": "47", "timestamp": 8755.67}
{"type": "machine_unavailable", "resources": "84", "timestamp": 6991.34}
{"type": "machine_available", "resources": "84", "timestamp": 8791.34}
{"type": "machine_unavailable", "resources": "49", "timestamp": 7014.3}
{"type": "machine_available", "resources": "49", "timestamp": 8814.3}
{"type": "machine_unavailable", "resources": "44", "timestamp": 7060.93}
{"type": "machine_available", "resources": "44", "timestamp": 8860.93}
{"type": "machine_unavailable", "resources": "38", "timestamp": 7157.14}
{"type": "machine_available", "resources": "38", "timestamp": 8957.14}
{"type": "machine_unavailable", "resources": "0", "timestamp": 7181.77}
{"type": "machine_available", "resources": "0", "timestamp": 8981.77}
{"type": "machine_unavailable", "resources": "83", "timestamp": 7218.19}
{"type": "machine_available", "resources": "83", "timestamp": 9018.19}
{"type": "machine_unavailable", "resources": "13", "timestamp": 7221.52}
{"type": "machine_available", "resources": "13", "timestamp": 9021.52}
{"type": "machine_unavailable", "resources": "85", "timestamp": 7229.19}
{"type": "machine_available", "resources": "85", "timestamp": 9029.19}
{"type": "machine_unavailable", "resources": "12", "timestamp": 7312.12}
{"type": "machine_available", "resources": "12", "timestamp": 9112.12}
{"type": "machine_unavailable", "resources": "95", "timestamp": 7384.02}
{"type": "machine_available", "resources": "95", "timestamp": 9184.02}
{"type": "machine_unavailable", "resources": "34", "timestamp": 7406.41}
{"type": "machine_available", "resources": "34", "timestamp": 9206.41}
{"type": "machine_unavailable", "resources": "73", "timestamp": 7496.95}
{"type": "machine_available", "resources": "73", "timestamp": 9296.95}
{"type": "machine_unavailable", "resources": "36", "timestamp": 7545.24}
{"type": "machine_available", "resources": "36", "timestamp": 9345.24}
{"type": "machine_unavailable", "resources": "16", "timestamp": 7579.4}
{"type": "machine_available", "resources": "16", "timestamp": 9379.4}
{"type": "machine_unavailable", "resources": "23", "timestamp": 7581.71}
{"type": "machine_available", "resources": "23", "timestamp": 9381.71}
{"type": "machine_unavailable", "resources": "50", "timestamp": 7588.23}
{"type": "machine_available", "resources": "50", "timestamp": 9388.23}
{"type": "machine_unavailable", "resources": "76", "timestamp": 7591.99}
{"type": "machine_available", "resources": "76", "timestamp": 9391.99}
{"type": "machine_unavailable", "resources": "54", "timestamp": 7730.22}
{"type": "machine_available", "resources": "54", "timestamp": 9530.22}
{"type": "machine_unavailable", "resources": "55", "timestamp": 7731.14}
{"type": "machine_available", "resources": "55", "timestamp": 9531.14}
{"type": "machine_unavailable", "resources": "70", "timestamp": 7757.64}
{"type": "machine_available", "resources": "70", "timestamp": 9557.64}
{"type": "machine_unavailable", "resources": "46", "timestamp": 7791.51}
{"type": "machine_available", "resources": "46", "timestamp": 9591.51}
{"type": "machine_unavailable", "resources": "75", "timestamp": 7801.09}
{"type": "machine_available", "resources": "75", "timestamp": 9601.09}
{"type": "machine_unavailable", "resources": "48", "timestamp": 7821.46}
{"type": "machine_available", "resources": "48", "timestamp": 9621.46}
{"type": "machine_unavailable", "resources": "62", "timestamp": 7832.52}
{"type": "machine_available", "resources": "62", "timestamp": 9632.52}
{"type": "machine_unavailable", "resources": "33", "timestamp": 7836.09}
{"type": "machine_available", "resources": "33", "timestamp": 9636.09}
{"type": "machine_unavailable", "resources": "42", "timestamp": 7876.88}
{"type": "machine_available", "resources": "42", "timestamp": 9676.88}
{"type": "machine_unavailable", "resources": "69", "timestamp": 7914.61}
{"type": "machine_available", "resources": "69", "timestamp": 9714.61}
{"type": "machine_unavailable", "resources": "30", "timestamp": 7976.59}
{"type": "machine_available", "resources": "30", "timestamp": 9776.59}
{"type": "machine_unavailable", "resources": "81", "timestamp": 7979.94}
{"type": "machine_available", "resources": "81", "timestamp": 9779.94}
{"type": "machine_unavailable", "resources": "77", "timestamp": 8067.43}
{"type": "machine_available", "resources": "77", "timestamp": 9867.43}
{"type": "machine_unavailable", "resources": "2", "timestamp": 8113.36}
{"type": "machine_available", "resources": "2", "timestamp": 9913.36}
{"type": "machine_unavailable", "resources": "65", "timestamp": 8128.08}
{"type": "machine_available", "resources": "65", "timestamp": 9928.08}
{"type": "machine_unavailable", "resources": "87", "timestamp": 8154.73}
{"type": "machine_available", "resources": "87", "timestamp": 9954.73}
{"type": "machine_unavailable", "resources": "14", "timestamp": 8302.6}
{"type": "machine_available", "resources": "14", "timestamp": 10102.6}
{"type": "machine_unavailable", "resources": "59", "timestamp": 8303.94}
{"type": "machine_available", "resources": "59", "timestamp": 10103.94}
{"type": "machine_unavailable", "resources": "72", "timestamp": 8319.05}
{"type": "machine_available", "resources": "72", "timestamp": 10119.05}
{"type": "machine_unavailable", "resources": "20", "timestamp": 8320.68}
{"type": "machine_available", "resources": "20", "timestamp": 10120.68}
{"type": "machine_unavailable", "resources": "11", "timestamp": 8325.28}
{"type": "machine_available", "resources": "11", "timestamp": 10125.28}
{"type": "machine_unavailable", "resources": "99", "timestamp": 8334.16}
{"type": "machine_available", "resources": "99", "timestamp": 10134.16}
{"type": "machine_unavailable", "resources": "67", "timestamp": 8415.24}
{"type": "machine_available", "resources": "67", "timestamp": 10215.24}
{"type": "machine_unavailable", "resources": "40", "timestamp": 8428.13}
{"type": "machine_available", "resources": "40", "timestamp": 10228.13}
{"type": "machine_unavailable", "resources": "27", "timestamp": 8447.89}
{"type": "machine_available", "resources": "27", "timestamp": 10247.89}
{"type": "machine_unavailable", "resources": "78", "timestamp": 8451.9}
{"type": "machine_available", "resources": "78", "timestamp": 10251.9}
{"type": "machine_unavailable", "resources": "98", "timestamp": 8461.38}
{"type": "machine_available", "resources": "98", "timestamp": 10261.38}
{"type": "machine_unavailable", "resources": "17", "timestamp": 8463.27}
{"type": "machine_available", "resources": "17", "timestamp": 10263.27}
{"type": "machine_unavailable", "resources": "8", "timestamp": 8488.87}
{"type": "machine_available", "resources": "8", "timestamp": 10288.87}
{"type": "machine_unavailable", "resources": "21", "timestamp": 8511.09}
{"type": "machine_available", "resources": "21", "timestamp": 10311.09}
{"type": "machine_unavailable", "resources": "37", "timestamp": 8590.75}
{"type": "machine_available", "resources": "37", "timestamp": 10390.75}
{"type": "machine_unavailable", "resources": "32", "timestamp": 8650.98}
{"type": "machine_available", "resources": "32", "timestamp": 10450.98}
{"type": "machine_unavailable", "resources": "60", "timestamp": 8659.01}
{"type": "machine_available", "resources": "60", "timestamp": 10459.01}
{"type": "machine_unavailable", "resources": "58", "timestamp": 8673.26}
{"type": "machine_available", "resources": "58", "timestamp": 10473.26}
{"type": "machine_unavailable", "resources": "52", "timestamp": 8690.57}
{"type": "machine_available", "resources": "52", "timestamp": 10490.57}
{"type": "machine_unavailable", "resources": "90", "timestamp": 8693.72}
{"type": "machine_available", "resources": "90", "timestamp": 10493.72}
{"type": "machine_unavailable", "resources": "53", "timestamp": 8713.63}
{"type": "machine_available", "resources": "53", "timestamp": 10513.63}
{"type": "machine_unavailable", "resources": "89", "timestamp": 8740.16}
{"type": "machine_available", "resources": "89", "timestamp": 10540.16}
{"type": "machine_unavailable", "resources": "86", "timestamp": 8776.95}
{"type": "machine_available", "resources": "86", "timestamp": 10576.95}
{"type": "machine_unavailable", "resources": "94", "timestamp": 8779.62}
{"type": "machine_available", "resources": "94", "timestamp": 10579.62}
{"type": "machine_unavailable", "resources": "41", "timestamp": 8793.56}
{"type": "machine_available", "resources": "41", "timestamp": 10593.56}
{"type": "machine_unavailable", "resources": "29", "timestamp": 8799.2}
{"type": "machine_available", "resources": "29", "timestamp": 10599.2}
{"type": "machine_unavailable", "resources": "92", "timestamp": 8869.02}
{"type": "machine_available", "resources": "92", "timestamp": 10669.02}
{"type": "machine_unavailable", "resources": "61", "timestamp": 8915.87}
{"type": "machine_available", "resources": "61", "timestamp": 10715.87}
{"type": "machine_unavailable", "resources": "74", "timestamp": 8952.47}
{"type": "machine_available", "resources": "74", "timestamp": 10752.47}
{"type": "machine_unavailable", "resources": "18", "timestamp": 8956.67}
{"type": "machine_available", "resources": "18", "timestamp": 10756.67}
{"type": "machine_unavailable", "resources": "79", "timestamp": 9050.05}
{"type": "machine_available", "resources": "79", "timestamp": 10850.05}
{"type": "machine_unavailable", "resources": "6", "timestamp": 9065.36}
{"type": "machine_available", "resources": "6", "timestamp": 10865.36}
{"type": "machine_unavailable", "resources": "64", "timestamp": 9091.28}
{"type": "machine_available", "resources": "64", "timestamp": 10891.28}
{"type": "machine_unavailable", "resources": "1", "timestamp": 9093.99}
{"type": "machine_available", "resources": "1", "timestamp": 10893.99}
{"type": "machine_unavailable", "resources": "51", "timestamp": 9099.63}
{"type": "machine_available", "resources": "51", "timestamp": 10899.63}
{"type": "machine_unavailable", "resources": "96", "timestamp": 9100.6}
{"type": "machine_available", "resources": "96", "timestamp": 10900.6}
{"type": "machine_unavailable", "resources": "5", "timestamp": 9171.2}
{"type": "machine_available", "resources": "5", "timestamp": 10971.2}
{"type": "machine_unavailable", "resources": "43", "timestamp": 9233.81}
{"type": "machine_available", "resources": "43", "timestamp": 11033.81}
{"type": "machine_unavailable", "resources": "24", "timestamp": 9255.44}
{"type": "machine_available", "resources": "24", "timestamp": 11055.44}
{"type": "machine_unavailable", "resources": "82", "timestamp": 9269.28}
{"type": "machine_available", "resources": "82", "timestamp": 11069.28}
{"type": "machine_unavailable", "resources": "19", "timestamp": 9276.18}
{"type": "machine_available", "resources": "19", "timestamp": 11076.18}
{"type": "machine_unavailable", "resources": "56", "timestamp": 9317.6}
{"type": "machine_available", "resources": "56", "timestamp": 11117.6}
{"type": "machine_unavailable", "resources": "39", "timestamp": 9327.96}
{"type": "machine_available", "resources": "39", "timestamp": 11127.96}
{"type": "machine_unavailable", "resources": "66", "timestamp": 9342.59}
{"type": "machine_available", "resources": "66", "timestamp": 11142.59}
{"type": "machine_unavailable", "resources": "95", "timestamp": 9362.59}
{"type": "machine_available", "resources": "95", "timestamp": 11162.59}
{"type": "machine_unavailable", "resources": "23", "timestamp": 9409.01}
{"type": "machine_available", "resources": "23", "timestamp": 11209.01}
{"type": "machine_unavailable", "resources": "44", "timestamp": 9420.6}
{"type": "machine_available", "resources": "44", "timestamp": 11220.6}
{"type": "machine_unavailable", "resources": "13", "timestamp": 9459.13}
{"type": "machine_available", "resources": "13", "timestamp": 11259.13}
{"type": "machine_unavailable", "resources": "36", "timestamp": 9470.73}
{"type": "machine_available", "resources": "36", "timestamp": 11270.73}
{"type": "machine_unavailable", "resources": "47", "timestamp": 9476.47}
{"type": "machine_available", "resources": "47", "timestamp": 11276.47}
{"type": "machine_unavailable", "resources": "4", "timestamp": 9522.3}
{"type": "machine_available", "resources": "4", "timestamp": 11322.3}
{"type": "machine_unavailable", "resources": "73", "timestamp": 9560.28}
{"type": "machine_available", "resources": "73", "timestamp": 11360.28}
{"type": "machine_unavailable", "resources": "34", "timestamp": 9583.47}
{"type": "machine_available", "resources": "34", "timestamp": 11383.47}
{"type": "machine_unavailable", "resources": "76", "timestamp": 9601.66}
{"type": "machine_available", "resources": "76", "timestamp": 11401.66}
{"type": "machine_unavailable", "resources": "83", "timestamp": 9604.82}
{"type": "machine_available", "resources": "83", "timestamp": 11404.82}
{"type": "machine_unavailable", "resources": "93", "timestamp": 9634.23}
{"type": "machine_available", "resources": "93", "timestamp": 11434.23}
{"type": "machine_unavailable", "resources": "70", "timestamp": 9712.85}
{"type": "machine_available", "resources": "70", "timestamp": 11512.85}
{"type": "machine_unavailable", "resources": "69", "timestamp": 9724.43}
{"type": "machine_available", "resources": "69", "timestamp": 11524.43}
{"type": "machine_unavailable", "resources": "88", "timestamp": 9749.95}
{"type": "machine_available", "resources": "88", "timestamp": 11549.95}
{"type": "machine_unavailable", "resources": "50", "timestamp": 9777.96}
{"type": "machine_available", "resources": "50", "timestamp": 11577.96}
{"type": "machine_unavailable", "resources": "91", "timestamp": 9803.06}
{"type": "machine_available", "resources": "91", "timestamp": 11603.06}
{"type": "machine_unavailable", "resources": "15", "timestamp": 9811.29}
{"type": "machine_available", "resources": "15", "timestamp": 11611.29}
{"type": "machine_unavailable", "resources": "57", "timestamp": 9814.96}
{"type": "machine_available", "resources": "57", "timestamp": 11614.96}
{"type": "machine_unavailable", "resources": "81", "timestamp": 9872.0}
{"type": "machine_available", "resources": "81", "timestamp": 11672.0}
{"type": "machine_unavailable", "resources": "68", "timestamp": 9901.44}
{"type": "machine_available", "resources": "68", "timestamp": 11701.44}
{"type": "machine_unavailable", "resources": "77", "timestamp": 9918.06}
{"type": "machine_available", "resources": "77", "timestamp": 11718.06}
{"type": "machine_unavailable", "resources": "25", "timestamp": 9953.82}
{"type": "machine_available", "resources": "25", "timestamp": 11753.82}
{"type": "machine_unavailable", "resources": "12", "timestamp": 9956.37}
{"type": "machine_available", "resources": "12", "timestamp": 11756.37}
{"type": "machine_unavailable", "resources": "49", "timestamp": 9957.67}
{"type": "machine_available", "resources": "49", "timestamp": 11757.67}
{"type": "machine_unavailable", "resources": "85", "timestamp": 9965.44}
{"type": "machine_available", "resources": "85", "timestamp": 11765.44}
{"type": "machine_unavailable", "resources": "16", "timestamp": 9966.2}
{"type": "machine_available", "resources": "16", "timestamp": 11766.2}
{"type": "machine_unavailable", "resources": "26", "timestamp": 9991.08}
{"type": "machine_available", "resources": "26", "timestamp": 11791.08}
{"type": "machine_unavailable", "resources": "54", "timestamp": 10004.74}
{"type": "machine_available", "resources": "54", "timestamp": 11804.74}
{"type": "machine_unavailable", "resources": "55", "timestamp": 10013.8}
{"type": "machine_available", "resources": "55", "timestamp": 11813.8}
{"type": "machine_unavailable", "resources": "65", "timestamp": 10067.07}
{"type": "machine_available", "resources": "65", "timestamp": 11867.07}
{"type": "machine_unavailable", "resources": "75", "timestamp": 10067.74}
{"type": "machine_available", "resources": "75", "timestamp": 11867.74}
{"type": "machine_unavailable", "resources": "30", "timestamp": 10118.5}
{"type": "machine_available", "resources": "30", "timestamp": 11918.5}
{"type": "machine_unavailable", "resources": "22", "timestamp": 10118.54}
{"type": "machine_available", "resources": "22", "timestamp": 11918.54}
{"type": "machine_unavailable", "resources": "72", "timestamp": 10168.09}
{"type": "machine_available", "resources": "72", "timestamp": 11968.09}
{"type": "machine_unavailable", "resources": "3", "timestamp": 10214.84}
{"type": "machine_available", "resources": "3", "timestamp": 12014.84}
{"type": "machine_unavailable", "resources": "62", "timestamp": 10243.25}
{"type": "machine_available", "resources": "62", "timestamp": 12043.25}
{"type": "machine_unavailable", "resources": "14", "timestamp": 10246.08}
{"type": "machine_available", "resources": "14", "timestamp": 12046.08}
{"type": "machine_unavailable", "resources": "38", "timestamp": 10253.51}
{"type": "machine_available", "resources": "38", "timestamp": 12053.51}
{"type": "machine_unavailable", "resources": "42", "timestamp": 10288.83}
{"type": "machine_available", "resources": "42", "timestamp": 12088.83}
{"type": "machine_unavailable", "resources": "78", "timestamp": 10343.41}
{"type": "machine_available", "resources": "78", "timestamp": 12143.41}
{"type": "machine_unavailable", "resources": "98", "timestamp": 10361.64}
{"type": "machine_available", "resources": "98", "timestamp": 12161.64}
{"type": "machine_unavailable", "resources": "63", "timestamp": 10369.55}
{"type": "machine_available", "resources": "63", "timestamp": 12169.55}
{"type": "machine_unavailable", "resources": "33", "timestamp": 10374.37}
{"type": "machine_available", "resources": "33", "timestamp": 12174.37}
{"type": "machine_unavailable", "resources": "11", "timestamp": 10383.28}
{"type": "machine_available", "resources": "11", "timestamp": 12183.28}
{"type": "machine_unavailable", "resources": "46", "timestamp": 10490.41}
{"type": "machine_available", "resources": "46", "timestamp": 12290.41}
{"type": "machine_unavailable", "resources": "0", "timestamp": 10536.07}
{"type": "machine_available", "resources": "0", "timestamp": 12336.07}
{"type": "machine_unavailable", "resources": "67", "timestamp": 10656.32}
{"type": "machine_available", "resources": "67", "timestamp": 12456.32}
{"type": "machine_unavailable", "resources": "17", "timestamp": 10753.95}
{"type": "machine_available", "resources": "17", "timestamp": 12553.95}
{"type": "machine_unavailable", "resources": "90", "timestamp": 10764.56}
{"type": "machine_available", "resources": "90", "timestamp": 12564.56}
{"type": "machine_unavailable", "resources": "31", "timestamp": 10766.28}
{"type": "machine_available", "resources": "31", "timestamp": 12566.28}
{"type": "machine_unavailable", "resources": "71", "timestamp": 10770.43}
{"type": "machine_available", "resources": "71", "timestamp": 12570.43}
{"type": "machine_unavailable", "resources": "7", "timestamp": 10773.83}
{"type": "machine_available", "resources": "7", "timestamp": 12573.83}
{"type": "machine_unavailable", "resources": "48", "timestamp": 10800.64}
{"type": "machine_available", "resources": "48", "timestamp": 12600.64}
{"type": "machine_unavailable", "resources": "80", "timestamp": 10810.72}
{"type": "machine_available", "resources": "80", "timestamp": 12610.72}
{"type": "machine_unavailable", "resources": "9", "timestamp": 10836.72}
{"type": "machine_available", "resources": "9", "timestamp": 12636.72}
{"type": "machine_unavailable", "resources": "10", "timestamp": 10838.38}
{"type": "machine_available", "resources": "10", "timestamp": 12638.38}
{"type": "machine_unavailable", "resources": "40", "timestamp": 10875.51}
{"type": "machine_available", "resources": "40", "timestamp": 12675.51}
{"type": "machine_unavailable", "resources": "60", "timestamp": 10903.04}
{"type": "machine_available", "resources": "60", "timestamp": 12703.04}
{"type": "machine_unavailable", "resources": "8", "timestamp": 10967.27}
{"type": "machine_available", "resources": "8", "timestamp": 12767.27}
{"type": "machine_unavailable", "resources": "45", "timestamp": 10997.38}
{"type": "machine_available", "resources": "45", "timestamp": 12797.38}
{"type": "machine_unavailable", "resources": "2", "timestamp": 11007.15}
{"type": "machine_available", "resources": "2", "timestamp": 12807.15}
{"type": "machine_unavailable", "resources": "52", "timestamp": 11028.45}
{"type": "machine_available", "resources": "52", "timestamp": 12828.45}
{"type": "machine_unavailable", "resources": "84", "timestamp": 11053.38}
{"type": "machine_available", "resources": "84", "timestamp": 12853.38}
{"type": "machine_unavailable", "resources": "21", "timestamp": 11059.01}
{"type": "machine_available", "resources": "21", "timestamp": 12859.01}
{"type": "machine_unavailable", "resources": "94", "timestamp": 11069.18}
{"type": "machine_available", "resources": "94", "timestamp": 12869.18}
{"type": "machine_unavailable", "resources": "1", "timestamp": 11072.15}
{"type": "machine_available", "resources": "1", "timestamp": 12872.15}
{"type": "machine_unavailable", "resources": "35", "timestamp": 11073.61}
{"type": "machine_available", "resources": "35", "timestamp": 12873.61}
{"type": "machine_unavailable", "resources": "24", "timestamp": 11124.58}
{"type": "machine_available", "resources": "24", "timestamp": 12924.58}
{"type": "machine_unavailable", "resources": "96", "timestamp": 11126.35}
{"type": "machine_available", "resources": "96", "timestamp": 12926.35}
{"type": "machine_unavailable", "resources": "64", "timestamp": 11138.11}
{"type": "machine_available", "resources": "64", "timestamp": 12938.11}
{"type": "machine_unavailable", "resources": "37", "timestamp": 11199.38}
{"type": "machine_available", "resources": "37", "timestamp": 12999.38}
{"type": "machine_unavailable", "resources": "82", "timestamp": 11201.83}
{"type": "machine_available", "resources": "82", "timestamp": 13001.83}
{"type": "machine_unavailable", "resources": "92", "timestamp": 11323.16}
{"type": "machine_available", "resources": "92", "timestamp": 13123.16}
{"type": "machine_unavailable", "resources": "79", "timestamp": 11332.69}
{"type": "machine_available", "resources": "79", "timestamp": 13132.69}
{"type": "machine_unavailable", "resources": "58", "timestamp": 11336.48}
{"type": "machine_available", "resources": "58", "timestamp": 13136.48}
{"type": "machine_unavailable", "resources": "89", "timestamp": 11345.39}
{"type": "machine_available", "resources": "89", "timestamp": 13145.39}
{"type": "machine_unavailable", "resources": "41", "timestamp": 11351.39}
{"type": "machine_available", "resources": "41", "timestamp": 13151.39}
{"type": "machine_unavailable", "resources": "43", "timestamp": 11382.96}
{"type": "machine_available", "resources": "43", "timestamp": 13182.96}
{"type": "machine_unavailable", "resources": "73", "timestamp": 11408.47}
{"type": "machine_available", "resources": "73", "timestamp": 13208.47}
{"type": "machine_unavailable", "resources": "13", "timestamp": 11463.4}
{"type": "machine_available", "resources": "13", "timestamp": 13263.4}
{"type": "machine_unavailable", "resources": "44", "timestamp": 11552.95}
{"type": "machine_available", "resources": "44", "timestamp": 13352.95}
{"type": "machine_unavailable", "resources": "74", "timestamp": 11605.5}
{"type": "machine_available", "resources": "74", "timestamp": 13405.5}
{"type": "machine_unavailable", "resources": "99", "timestamp": 11634.09}
{"type": "machine_available", "resources": "99", "timestamp": 13434.09}
{"type": "machine_unavailable", "resources": "20", "timestamp": 11702.64}
{"type": "machine_available", "resources": "20", "timestamp": 13502.64}
{"type": "machine_unavailable", "resources": "86", "timestamp": 11709.0}
{"type": "machine_available", "resources": "86", "timestamp": 13509.0}
{"type": "machine_unavailable", "resources": "93", "timestamp": 11793.39}
{"type": "machine_available", "resources": "93", "timestamp": 13593.39}
{"type": "machine_unavailable", "resources": "68", "timestamp": 11797.4}
{"type": "machine_available", "resources": "68", "timestamp": 13597.4}
{"type": "machine_unavailable", "resources": "26", "timestamp": 11901.55}
{"type": "machine_available", "resources": "26", "timestamp": 13701.55}
{"type": "machine_unavailable", "resources": "97", "timestamp": 12001.48}
{"type": "machine_available", "resources": "97", "timestamp": 13801.48}
{"type": "machine_unavailable", "resources": "59", "timestamp": 12187.41}
{"type": "machine_available", "resources": "59", "timestamp": 13987.41}
{"type": "machine_unavailable", "resources": "47", "timestamp": 12194.82}
{"type": "machine_available", "resources": "47", "timestamp": 13994.82}
{"type": "machine_unavailable", "resources": "81", "timestamp": 12232.01}
{"type": "machine_available", "resources": "81", "timestamp": 14032.01}
{"type": "machine_unavailable", "resources": "39", "timestamp": 12266.65}
{"type": "machine_available", "resources": "39", "timestamp": 14066.65}
{"type": "machine_unavailable", "resources": "98", "timestamp": 12276.16}
{"type": "machine_available", "resources": "98", "timestamp": 14076.16}
{"type": "machine_unavailable", "resources": "22", "timestamp": 12296.76}
{"type": "machine_available", "resources": "22", "timestamp": 14096.76}
{"type": "machine_unavailable", "resources": "12", "timestamp": 12303.92}
{"type": "machine_available", "resources": "12", "timestamp": 14103.92}
{"type": "machine_unavailable", "resources": "91", "timestamp": 12352.97}
{"type": "machine_available", "resources": "91", "timestamp": 14152.97}
{"type": "machine_unavailable", "resources": "76", "timestamp": 12353.52}
{"type": "machine_available", "resources": "76", "timestamp": 14153.52}
{"type": "machine_unavailable", "resources": "42", "timestamp": 12380.76}
{"type": "machine_available", "resources": "42", "timestamp": 14180.76}
{"type": "machine_unavailable", "resources": "34", "timestamp": 12391.33}
{"type": "machine_available", "resources": "34", "timestamp": 14191.33}
{"type": "machine_unavailable", "resources": "49", "timestamp": 12402.41}
{"type": "machine_available", "resources": "49", "timestamp": 14202.41}
{"type": "machine_unavailable", "resources": "83", "timestamp": 12422.44}
{"type": "machine_available", "resources": "83", "timestamp": 14222.44}
{"type": "machine_unavailable", "resources": "46", "timestamp": 12426.47}
{"type": "machine_available", "resources": "46", "timestamp": 14226.47}
{"type": "machine_unavailable", "resources": "87", "timestamp": 12453.5}
{"type": "machine_available", "resources": "87", "timestamp": 14253.5}
{"type": "machine_unavailable", "resources": "85", "timestamp": 12504.62}
{"type": "machine_available", "resources": "85", "timestamp": 14304.62}
{"type": "machine_unavailable", "resources": "55", "timestamp": 12543.13}
{"type": "machine_available", "resources": "55", "timestamp": 14343.13}
{"type": "machine_unavailable", "resources": "5", "timestamp": 12554.99}
{"type": "machine_available", "resources": "5", "timestamp": 14354.99}
{"type": "machine_unavailable", "resources": "69", "timestamp": 12573.09}
{"type": "machine_available", "resources": "69", "timestamp": 14373.09}
{"type": "machine_unavailable", "resources": "32", "timestamp": 12606.3}
{"type": "machine_available", "resources": "32", "timestamp": 14406.3}
{"type": "machine_unavailable", "resources": "25", "timestamp": 12836.09}
{"type": "machine_available", "resources": "25", "timestamp": 14636.09}
{"type": "machine_unavailable", "resources": "14", "timestamp": 12838.37}
{"type": "machine_available", "resources": "14", "timestamp": 14638.37}
{"type": "machine_unavailable", "resources": "84", "timestamp": 12889.29}
{"type": "machine_available", "resources": "84", "timestamp": 14689.29}
{"type": "machine_unavailable", "resources": "51", "timestamp": 12904.75}
{"type": "machine_available", "resources": "51", "timestamp": 14704.75}
{"type": "machine_unavailable", "resources": "11", "timestamp": 12971.39}
{"type": "machine_available", "resources": "11", "timestamp": 14771.39}
{"type": "machine_unavailable", "resources": "90", "timestamp": 12976.17}
{"type": "machine_available", "resources": "90", "timestamp": 14776.17}
{"type": "machine_unavailable", "resources": "94", "timestamp": 13061.58}
{"type": "machine_available", "resources": "94", "timestamp": 14861.58}
{"type": "machine_unavailable", "resources": "95", "timestamp": 13073.75}
{"type": "machine_available", "resources": "95", "timestamp": 14873.75}
{"type": "machine_unavailable", "resources": "57", "timestamp": 13101.96}
{"type": "machine_available", "resources": "57", "timestamp": 14901.96}
{"type": "machine_unavailable", "resources": "77", "timestamp": 13126.43}
{"type": "machine_available", "resources": "77", "timestamp": 14926.43}
{"type": "machine_unavailable", "resources": "88", "timestamp": 13151.84}
{"type": "machine_available", "resources": "88", "timestamp": 14951.84}
{"type": "machine_unavailable", "resources": "30", "timestamp": 13249.2}
{"type": "machine_available", "resources": "30", "timestamp": 15049.2}
{"type": "machine_unavailable", "resources": "56", "timestamp": 13266.92}
{"type": "machine_available", "resources": "56", "timestamp": 15066.92}
{"type": "machine_unavailable", "resources": "36", "timestamp": 13292.94}
{"type": "machine_available", "resources": "36", "timestamp": 15092.94}
{"type": "machine_unavailable", "resources": "35", "timestamp": 13304.9}
{"type": "machine_available", "resources": "35", "timestamp": 15104.9}
{"type": "machine_unavailable", "resources": "63", "timestamp": 13308.15}
{"type": "machine_available", "resources": "63", "timestamp": 15108.15}
{"type": "machine_unavailable", "resources": "37", "timestamp": 13333.87}
{"type": "machine_available", "resources": "37", "timestamp": 15133.87}
{"type": "machine_unavailable", "resources": "67", "timestamp": 13371.91}
{"type": "machine_available", "resources": "67", "timestamp": 15171.91}
{"type": "machine_unavailable", "resources": "7", "timestamp": 13377.01}
{"type": "machine_available", "resources": "7", "timestamp": 15177.01}
{"type": "machine_unavailable", "resources": "89", "timestamp": 13378.9}
{"type": "machine_available", "resources": "89", "timestamp": 15178.9}
{"type": "machine_unavailable", "resources": "44", "timestamp": 13397.8}
{"type": "machine_available", "resources": "44", "timestamp": 15197.8}
{"type": "machine_unavailable", "resources": "16", "timestamp": 13398.01}
{"type": "machine_available", "resources": "16", "timestamp": 15198.01}
{"type": "machine_unavailable", "resources": "54", "timestamp": 13431.9}
{"type": "machine_available", "resources": "54", "timestamp": 15231.9}
{"type": "machine_unavailable", "resources": "6", "timestamp": 13443.73}
{"type": "machine_available", "resources": "6", "timestamp": 15243.73}
{"type": "machine_unavailable", "resources": "3", "timestamp": 13470.19}
{"type": "machine_available", "resources": "3", "timestamp": 15270.19}
{"type": "machine_unavailable", "resources": "27", "timestamp": 13475.12}
{"type": "machine_available", "resources": "27", "timestamp": 15275.12}
{"type": "machine_unavailable", "resources": "74", "timestamp": 13663.11}
{"type": "machine_available", "resources": "74", "timestamp": 15463.11}
{"type": "machine_unavailable", "resources": "68", "timestamp": 13676.32}
{"type": "machine_available", "resources": "68", "timestamp": 15476.32}
{"type": "machine_unavailable", "resources": "21", "timestamp": 13710.74}
{"type": "machine_available", "resources": "21", "timestamp": 15510.74}
{"type": "machine_unavailable", "resources": "72", "timestamp": 13716.54}
{"type": "machine_available", "resources": "72", "timestamp": 15516.54}
{"type": "machine_unavailable", "resources": "52", "timestamp": 13727.47}
{"type": "machine_available", "resources": "52", "timestamp": 15527.47}
{"type": "machine_unavailable", "resources": "93", "timestamp": 13743.11}
{"type": "machine_available", "resources": "93", "timestamp": 15543.11}
{"type": "machine_unavailable", "resources": "0", "timestamp": 13752.15}
{"type": "machine_available", "resources": "0", "timestamp": 15552.15}
{"type": "machine_unavailable", "resources": "29", "timestamp": 13757.29}
{"type": "machine_available", "resources": "29", "timestamp": 15557.29}
{"type": "machine_unavailable", "resources": "18", "timestamp": 13798.36}
{"type": "machine_available", "resources": "18", "timestamp": 15598.36}
{"type": "machine_unavailable", "resources": "79", "timestamp": 13838.42}
{"type": "machine_available", "resources": "79", "timestamp": 15638.42}
{"type": "machine_unavailable", "resources": "24", "timestamp": 13855.11}
{"type": "machine_available", "resources": "24", "timestamp": 15655.11}
{"type": "machine_unavailable", "resources": "26", "timestamp": 13912.98}
{"type": "machine_available", "resources": "26", "timestamp": 15712.98}
{"type": "machine_unavailable", "resources": "1", "timestamp": 13921.67}
{"type": "machine_available", "resources": "1", "timestamp": 15721.67}
{"type": "machine_unavailable", "resources": "23", "timestamp": 13946.45}
{"type": "machine_available", "resources": "23", "timestamp": 15746.45}
{"type": "machine_unavailable", "resources": "97", "timestamp": 13971.73}
{"type": "machine_available", "resources": "97", "timestamp": 15771.73}
{"type": "machine_unavailable", "resources": "99", "timestamp": 13975.29}
{"type": "machine_available", "resources": "99", "timestamp": 15775.29}
{"type": "machine_unavailable", "resources": "53", "timestamp": 14031.12}
{"type": "machine_available", "resources": "53", "timestamp": 15831.12}
{"type": "machine_unavailable", "resources": "4", "timestamp": 14059.11}
{"type": "machine_available", "resources": "4", "timestamp": 15859.11}
{"type": "machine_unavailable", "resources": "33", "timestamp": 14076.4}
{"type": "machine_available", "resources": "33", "timestamp": 15876.4}
{"type": "machine_unavailable", "resources": "75", "timestamp": 14085.46}
{"type": "machine_available", "resources": "75", "timestamp": 15885.46}
{"type": "machine_unavailable", "resources": "20", "timestamp": 14106.02}
{"type": "machine_available", "resources": "20", "timestamp": 15906.02}
{"type": "machine_unavailable", "resources": "12", "timestamp": 14108.17}
{"type": "machine_available", "resources": "12", "timestamp": 15908.17}
{"type": "machine_unavailable", "resources": "38", "timestamp": 14116.44}
{"type": "machine_available", "resources": "38", "timestamp": 15916.44}
{"type": "machine_unavailable", "resources": "9", "timestamp": 14165.33}
{"type": "machine_available", "resources": "9", "timestamp": 15965.33}
{"type": "machine_unavailable", "resources": "8", "timestamp": 14202.45}
{"type": "machine_available", "resources": "8", "timestamp": 16002.45}
{"type": "machine_unavailable", "resources": "92", "timestamp": 14203.65}
{"type": "machine_available", "resources": "92", "timestamp": 16003.65}
{"type": "machine_unavailable", "resources": "39", "timestamp": 14242.47}
{"type": "machine_available", "resources": "39", "timestamp": 16042.47}
{"type": "machine_unavailable", "resources": "58", "timestamp": 14258.66}
{"type": "machine_available", "resources": "58", "timestamp": 16058.66}
{"type": "machine_unavailable", "resources": "28", "timestamp": 14292.15}
{"type": "machine_available", "resources": "28", "timestamp": 16092.15}
{"type": "machine_unavailable", "resources": "61", "timestamp": 14328.62}
{"type": "machine_available", "resources": "61", "timestamp": 16128.62}
{"type": "machine_unavailable", "resources": "13", "timestamp": 14329.2}
{"type": "machine_available", "resources": "13", "timestamp": 16129.2}
{"type": "machine_unavailable", "resources": "86", "timestamp": 14339.38}
{"type": "machine_available", "resources": "86", "timestamp": 16139.38}
{"type": "machine_unavailable", "resources": "70", "timestamp": 14344.26}
{"type": "machine_available", "resources": "70", "timestamp": 16144.26}
{"type": "machine_unavailable", "resources": "47", "timestamp": 14353.72}
{"type": "machine_available", "resources": "47", "timestamp": 16153.72}
{"type": "machine_unavailable", "resources": "78", "timestamp": 14369.48}
{"type": "machine_available", "resources": "78", "timestamp": 16169.48}
{"type": "machine_unavailable", "resources": "19", "timestamp": 14404.77}
{"type": "machine_available", "resources": "19", "timestamp": 16204.77}
{"type": "machine_unavailable", "resources": "65", "timestamp": 14411.39}
{"type": "machine_available", "resources": "65", "timestamp": 16211.39}
{"type": "machine_unavailable", "resources": "87", "timestamp": 14417.24}
{"type": "machine_available", "resources": "87", "timestamp": 16217.24}
{"type": "machine_unavailable", "resources": "31", "timestamp": 14506.25}
{"type": "machine_available", "resources": "31", "timestamp": 16306.25}
{"type": "machine_unavailable", "resources": "82", "timestamp": 14528.43}
{"type": "machine_available", "resources": "82", "timestamp": 16328.43}
{"type": "machine_unavailable", "resources": "60", "timestamp": 14565.34}
{"type": "machine_available", "resources": "60", "timestamp": 16365.34}
{"type": "machine_unavailable", "resources": "45", "timestamp": 14591.92}
{"type": "machine_available", "resources": "45", "timestamp": 16391.92}
{"type": "machine_unavailable", "resources": "5", "timestamp": 14608.98}
{"type": "machine_available", "resources": "5", "timestamp": 16408.98}
{"type": "machine_unavailable", "resources": "91", "timestamp": 14623.27}
{"type": "machine_available", "resources": "91", "timestamp": 16423.27}
{"type": "machine_unavailable", "resources": "48", "timestamp": 14671.97}
{"type": "machine_available", "resources": "48", "timestamp": 16471.97}
{"type": "machine_unavailable", "resources": "85", "timestamp": 14688.14}
{"type": "machine_available", "resources": "85", "timestamp": 16488.14}
{"type": "machine_unavailable", "resources": "40", "timestamp": 14723.28}
{"type": "machine_available", "resources": "40", "timestamp": 16523.28}
{"type": "machine_unavailable", "resources": "2", "timestamp": 14725.13}
{"type": "machine_available", "resources": "2", "timestamp": 16525.13}
{"type": "machine_unavailable", "resources": "34", "timestamp": 14769.76}
{"type": "machine_available", "resources": "34", "timestamp": 16569.76}
{"type": "machine_unavailable", "resources": "25", "timestamp": 14770.83}
{"type": "machine_available", "resources": "25", "timestamp": 16570.83}
{"type": "machine_unavailable", "resources": "80", "timestamp": 14808.41}
{"type": "machine_available", "resources": "80", "timestamp": 16608.41}
{"type": "machine_unavailable", "resources": "94", "timestamp": 14907.22}
{"type": "machine_available", "resources": "94", "timestamp": 16707.22}
{"type": "machine_unavailable", "resources": "55", "timestamp": 14949.48}
{"type": "machine_available", "resources": "55", "timestamp": 16749.48}
{"type": "machine_unavailable", "resources": "11", "timestamp": 14972.19}
{"type": "machine_available", "resources": "11", "timestamp": 16772.19}
{"type": "machine_unavailable", "resources": "66", "timestamp": 15008.85}
{"type": "machine_available", "resources": "66", "timestamp": 16808.85}
{"type": "machine_unavailable", "resources": "62", "timestamp": 15010.35}
{"type": "machine_available", "resources": "62", "timestamp": 16810.35}
{"type": "machine_unavailable", "resources": "77", "timestamp": 15070.84}
{"type": "machine_available", "resources": "77", "timestamp": 16870.84}
{"type": "machine_unavailable", "resources": "83", "timestamp": 15085.53}
{"type": "machine_available", "resources": "83", "timestamp": 16885.53}
{"type": "machine_unavailable", "resources": "10", "timestamp": 15122.57}
{"type": "machine_available", "resources": "10", "timestamp": 16922.57}
{"type": "machine_unavailable", "resources": "41", "timestamp": 15135.98}
{"type": "machine_available", "resources": "41", "timestamp": 16935.98}
{"type": "machine_unavailable", "resources": "96", "timestamp": 15148.18}
{"type": "machine_available", "resources": "96", "timestamp": 16948.18}
{"type": "machine_unavailable", "resources": "32", "timestamp": 15194.01}
{"type": "machine_available", "resources": "32", "timestamp": 16994.01}
{"type": "machine_unavailable", "resources": "51", "timestamp": 15221.53}
{"type": "machine_available", "resources": "51", "timestamp": 17021.53}
{"type": "machine_unavailable", "resources": "59", "timestamp": 15226.98}
{"type": "machine_available", "resources": "59", "timestamp": 17026.98}
{"type": "machine_unavailable", "resources": "90", "timestamp": 15241.67}
{"type": "machine_available", "resources": "90", "timestamp": 17041.67}
{"type": "machine_unavailable", "resources": "22", "timestamp": 15245.36}
{"type": "machine_available", "resources": "22", "timestamp": 17045.36}
{"type": "machine_unavailable", "resources": "76", "timestamp": 15266.87}
{"type": "machine_available", "resources": "76", "timestamp": 17066.87}
{"type": "machine_unavailable", "resources": "35", "timestamp": 15311.51}
{"type": "machine_available", "resources": "35", "timestamp": 17111.51}
{"type": "machine_unavailable", "resources": "69", "timestamp": 15361.63}
{"type": "machine_available", "resources": "69", "timestamp": 17161.63}
{"type": "machine_unavailable", "resources": "16", "timestamp": 15379.07}
{"type": "machine_available", "resources": "16", "timestamp": 17179.07}
{"type": "machine_unavailable", "resources": "7", "timestamp": 15396.62}
{"type": "machine_available", "resources": "7", "timestamp": 17196.62}
{"type": "machine_unavailable", "resources": "14", "timestamp": 15398.61}
{"type": "machine_available", "resources": "14", "timestamp": 17198.61}
{"type": "machine_unavailable", "resources": "37", "timestamp": 15404.48}
{"type": "machine_available", "resources": "37", "timestamp": 17204.48}
{"type": "machine_unavailable", "resources": "36", "timestamp": 15408.58}
{"type": "machine_available", "resources": "36", "timestamp": 17208.58}
{"type": "machine_unavailable", "resources": "67", "timestamp": 15481.6}
{"type": "machine_available", "resources": "67", "timestamp": 17281.6}
{"type": "machine_unavailable", "resources": "17", "timestamp": 15518.01}
{"type": "machine_available", "resources": "17", "timestamp": 17318.01}
{"type": "machine_unavailable", "resources": "27", "timestamp": 15525.07}
{"type": "machine_available", "resources": "27", "timestamp": 17325.07}
{"type": "machine_unavailable", "resources": "15", "timestamp": 15573.03}
{"type": "machine_available", "resources": "15", "timestamp": 17373.03}
{"type": "machine_unavailable", "resources": "89", "timestamp": 15631.88}
{"type": "machine_available", "resources": "89", "timestamp": 17431.88}
{"type": "machine_unavailable", "resources": "95", "timestamp": 15633.57}
{"type": "machine_available", "resources": "95", "timestamp": 17433.57}
{"type": "machine_unavailable", "resources": "49", "timestamp": 15634.26}
{"type": "machine_available", "resources": "49", "timestamp": 17434.26}
{"type": "machine_unavailable", "resources": "42", "timestamp": 15641.7}
{"type": "machine_available", "resources": "42", "timestamp": 17441.7}
{"type": "machine_unavailable", "resources": "63", "timestamp": 15670.31}
{"type": "machine_available", "resources": "63", "timestamp": 17470.31}
{"type": "machine_unavailable", "resources": "6", "timestamp": 15745.71}
{"type": "machine_available", "resources": "6", "timestamp": 17545.71}
{"type": "machine_unavailable", "resources": "44", "timestamp": 15752.58}
{"type": "machine_available", "resources": "44", "timestamp": 17552.58}
{"type": "machine_unavailable", "resources": "93", "timestamp": 15770.06}
{"type": "machine_available", "resources": "93", "timestamp": 17570.06}
{"type": "machine_unavailable", "resources": "73", "timestamp": 15814.5}
{"type": "machine_available", "resources": "73", "timestamp": 17614.5}
{"type": "machine_unavailable", "resources": "97", "timestamp": 15832.96}
{"type": "machine_available", "resources": "97", "timestamp": 17632.96}
{"type": "machine_unavailable", "resources": "46", "timestamp": 15844.73}
{"type": "machine_available", "resources": "46", "timestamp": 17644.73}
{"type": "machine_unavailable", "resources": "29", "timestamp": 15866.24}
{"type": "machine_available", "resources": "29", "timestamp": 17666.24}
{"type": "machine_unavailable", "resources": "64", "timestamp": 15873.42}
{"type": "machine_available", "resources": "64", "timestamp": 17673.42}
{"type": "machine_unavailable", "resources": "54", "timestamp": 15900.45}
{"type": "machine_available", "resources": "54", "timestamp": 17700.45}
{"type": "machine_unavailable", "resources": "81", "timestamp": 15927.08}
{"type": "machine_available", "resources": "81", "timestamp": 17727.08}
{"type": "machine_unavailable", "resources": "1", "timestamp": 15929.94}
{"type": "machine_available", "resources": "1", "timestamp": 17729.94}
{"type": "machine_unavailable", "resources": "0", "timestamp": 15939.35}
{"type": "machine_available", "resources": "0", "timestamp": 17739.35}
{"type": "machine_unavailable", "resources": "79", "timestamp": 15948.17}
{"type": "machine_available", "resources": "79", "timestamp": 17748.17}
{"type": "machine_unavailable", "resources": "84", "timestamp": 15967.95}
{"type": "machine_available", "resources": "84", "timestamp": 17767.95}
{"type": "machine_unavailable", "resources": "99", "timestamp": 15999.69}
{"type": "machine_available", "resources": "99", "timestamp": 17799.69}
{"type": "machine_unavailable", "resources": "8", "timestamp": 16021.65}
{"type": "machine_available", "resources": "8", "timestamp": 17821.65}
{"type": "machine_unavailable", "resources": "23", "timestamp": 16027.3}
{"type": "machine_available", "resources": "23", "timestamp": 17827.3}
{"type": "machine_unavailable", "resources": "24", "timestamp": 16044.84}
{"type": "machine_available", "resources": "24", "timestamp": 17844.84}
{"type": "machine_unavailable", "resources": "75", "timestamp": 16045.63}
{"type": "machine_available", "resources": "75", "timestamp": 17845.63}
{"type": "machine_unavailable", "resources": "92", "timestamp": 16085.35}
{"type": "machine_available", "resources": "92", "timestamp": 17885.35}
{"type": "machine_unavailable", "resources": "56", "timestamp": 16103.2}
{"type": "machine_available", "resources": "56", "timestamp": 17903.2}
{"type": "machine_unavailable", "resources": "39", "timestamp": 16148.35}
{"type": "machine_available", "resources": "39", "timestamp": 17948.35}
{"type": "machine_unavailable", "resources": "61", "timestamp": 16171.59}
{"type": "machine_available", "resources": "61", "timestamp": 17971.59}
{"type": "machine_unavailable", "resources": "58", "timestamp": 16171.8}
{"type": "machine_available", "resources": "58", "timestamp": 17971.8}
{"type": "machine_unavailable", "resources": "33", "timestamp": 16195.75}
{"type": "machine_available", "resources": "33", "timestamp": 17995.75}
{"type": "machine_unavailable", "resources": "53", "timestamp": 16213.83}
{"type": "machine_available", "resources": "53", "timestamp": 18013.83}
{"type": "machine_unavailable", "resources": "4", "timestamp": 16293.35}
{"type": "machine_available", "resources": "4", "timestamp": 18093.35}
{"type": "machine_unavailable", "resources": "57", "timestamp": 16346.53}
{"type": "machine_available", "resources": "57", "timestamp": 18146.53}
{"type": "machine_unavailable", "resources": "19", "timestamp": 16398.41}
{"type": "machine_available", "resources": "19", "timestamp": 18198.41}
{"type": "machine_unavailable", "resources": "78", "timestamp": 16443.89}
{"type": "machine_available", "resources": "78", "timestamp": 18243.89}
{"type": "machine_unavailable", "resources": "60", "timestamp": 16499.94}
{"type": "machine_available", "resources": "60", "timestamp": 18299.94}
{"type": "machine_unavailable", "resources": "47", "timestamp": 16539.95}
{"type": "machine_available", "resources": "47", "timestamp": 18339.95}
{"type": "machine_unavailable", "resources": "21", "timestamp": 16552.5}
{"type": "machine_available", "resources": "21", "timestamp": 18352.5}
{"type": "machine_unavailable", "resources": "87", "timestamp": 16559.57}
{"type": "machine_available", "resources": "87", "timestamp": 18359.57}
{"type": "machine_unavailable", "resources": "20", "timestamp": 16574.86}
{"type": "machine_available", "resources": "20", "timestamp": 18374.86}
{"type": "machine_unavailable", "resources": "28", "timestamp": 16579.85}
{"type": "machine_available", "resources": "28", "timestamp": 18379.85}
{"type": "machine_unavailable", "resources": "85", "timestamp": 16580.98}
{"type": "machine_available", "resources": "85", "timestamp": 18380.98}
{"type": "machine_unavailable", "resources": "65", "timestamp": 16598.34}
{"type": "machine_available", "resources": "65", "timestamp": 18398.34}
{"type": "machine_unavailable", "resources": "50", "timestamp": 16598.47}
{"type": "machine_available", "resources": "50", "timestamp": 18398.47}
{"type": "machine_unavailable", "resources": "5", "timestamp": 16608.16}
{"type": "machine_available", "resources": "5", "timestamp": 18408.16}
{"type": "machine_unavailable", "resources": "12", "timestamp": 16610.74}
{"type": "machine_available", "resources": "12", "timestamp": 18410.74}
{"type": "machine_unavailable", "resources": "3", "timestamp": 16624.92}
{"type": "machine_available", "resources": "3", "timestamp": 18424.92}
{"type": "machine_unavailable", "resources": "25", "timestamp": 16635.26}
{"type": "machine_available", "resources": "25", "timestamp": 18435.26}
{"type": "machine_unavailable", "resources": "45", "timestamp": 16664.33}
{"type": "machine_available", "resources": "45", "timestamp": 18464.33}
{"type": "machine_unavailable", "resources": "86", "timestamp": 16695.5}
{"type": "machine_available", "resources": "86", "timestamp": 18495.5}
{"type": "machine_unavailable", "resources": "52", "timestamp": 16714.14}
{"type": "machine_available", "resources": "52", "timestamp": 18514.14}
{"type": "machine_unavailable", "resources": "72", "timestamp": 16728.1}
{"type": "machine_available", "resources": "72", "timestamp": 18528.1}
{"type": "machine_unavailable", "resources": "2", "timestamp": 16746.55}
{"type": "machine_available", "resources": "2", "timestamp": 18546.55}
{"type": "machine_unavailable", "resources": "80", "timestamp": 16778.58}
{"type": "machine_available", "resources": "80", "timestamp": 18578.58}
{"type": "machine_unavailable", "resources": "74", "timestamp": 16796.68}
{"type": "machine_available", "resources": "74", "timestamp": 18596.68}
{"type": "machine_unavailable", "resources": "91", "timestamp": 16805.83}
{"type": "machine_available", "resources": "91", "timestamp": 18605.83}
{"type": "machine_unavailable", "resources": "55", "timestamp": 16829.32}
{"type": "machine_available", "resources": "55", "timestamp": 18629.32}
{"type": "machine_unavailable", "resources": "94", "timestamp": 16876.24}
{"type": "machine_available", "resources": "94", "timestamp": 18676.24}
{"type": "machine_unavailable", "resources": "9", "timestamp": 16876.51}
{"type": "machine_available", "resources": "9", "timestamp": 18676.51}
{"type": "machine_unavailable", "resources": "71", "timestamp": 16916.52}
{"type": "machine_available", "resources": "71", "timestamp": 18716.52}
{"type": "machine_unavailable", "resources": "77", "timestamp": 16922.29}
{"type": "machine_available", "resources": "77", "timestamp": 18722.29}
{"type": "machine_unavailable", "resources": "88", "timestamp": 17091.73}
{"type": "machine_available", "resources": "88", "timestamp": 18891.73}
{"type": "machine_unavailable", "resources": "13", "timestamp": 17151.4}
{"type": "machine_available", "resources": "13", "timestamp": 18951.4}
{"type": "machine_unavailable", "resources": "35", "timestamp": 17211.85}
{"type": "machine_available", "resources": "35", "timestamp": 19011.85}
{"type": "machine_unavailable", "resources": "98", "timestamp": 17242.9}
{"type": "machine_available", "resources": "98", "timestamp": 19042.9}
{"type": "machine_unavailable", "resources": "90", "timestamp": 17250.52}
{"type": "machine_available", "resources": "90", "timestamp": 19050.52}
{"type": "machine_unavailable", "resources": "16", "timestamp": 17253.25}
{"type": "machine_available", "resources": "16", "timestamp": 19053.25}
{"type": "machine_unavailable", "resources": "37", "timestamp": 17270.69}
{"type": "machine_available", "resources": "37", "timestamp": 19070.69}
{"type": "machine_unavailable", "resources": "11", "timestamp": 17273.07}
{"type": "machine_available", "resources": "11", "timestamp": 19073.07}
{"type": "machine_unavailable", "resources": "40", "timestamp": 17288.53}
{"type": "machine_available", "resources": "40", "timestamp": 19088.53}
{"type": "machine_unavailable", "resources": "22", "timestamp": 17293.33}
{"type": "machine_available", "resources": "22", "timestamp": 19093.33}
{"type": "machine_unavailable", "resources": "14", "timestamp": 17312.21}
{"type": "machine_available", "resources": "14", "timestamp": 19112.21}
{"type": "machine_unavailable", "resources": "31", "timestamp": 17416.25}
{"type": "machine_available", "resources": "31", "timestamp": 19216.25}
{"type": "machine_unavailable", "resources": "26", "timestamp": 17439.34}
{"type": "machine_available", "resources": "26", "timestamp": 19239.34}
{"type": "machine_unavailable", "resources": "95", "timestamp": 17450.0}
{"type": "machine_available", "resources": "95", "timestamp": 19250.0}
{"type": "machine_unavailable", "resources": "30", "timestamp": 17470.26}
{"type": "machine_available", "resources": "30", "timestamp": 19270.26}
{"type": "machine_unavailable", "resources": "59", "timestamp": 17584.45}
{"type": "machine_available", "resources": "59", "timestamp": 19384.45}
{"type": "machine_unavailable", "resources": "44", "timestamp": 17641.28}
{"type": "machine_available", "resources": "44", "timestamp": 19441.28}
{"type": "machine_unavailable", "resources": "6", "timestamp": 17663.81}
{"type": "machine_available", "resources": "6", "timestamp": 19463.81}
{"type": "machine_unavailable", "resources": "17", "timestamp": 17679.3}
{"type": "machine_available", "resources": "17", "timestamp": 19479.3}
{"type": "machine_unavailable", "resources": "79", "timestamp": 17750.01}
{"type": "machine_available", "resources": "79", "timestamp": 19550.01}
{"type": "machine_unavailable", "resources": "82", "timestamp": 17753.42}
{"type": "machine_available", "resources": "82", "timestamp": 19553.42}
{"type": "machine_unavailable", "resources": "96", "timestamp": 17785.4}
{"type": "machine_available", "resources": "96", "timestamp": 19585.4}
{"type": "machine_unavailable", "resources": "66", "timestamp": 17826.57}
{"type": "machine_available", "resources": "66", "timestamp": 19626.57}
{"type": "machine_unavailable", "resources": "10", "timestamp": 17854.57}
{"type": "machine_available", "resources": "10", "timestamp": 19654.57}
{"type": "machine_unavailable", "resources": "67", "timestamp": 17862.03}
{"type": "machine_available", "resources": "67", "timestamp": 19662.03}
{"type": "machine_unavailable", "resources": "23", "timestamp": 17939.76}
{"type": "machine_available", "resources": "23", "timestamp": 19739.76}
{"type": "machine_unavailable", "resources": "64", "timestamp": 17950.93}
{"type": "machine_available", "resources": "64", "timestamp": 19750.93}
{"type": "machine_unavailable", "resources": "54", "timestamp": 17954.08}
{"type": "machine_available", "resources": "54", "timestamp": 19754.08}
{"type": "machine_unavailable", "resources": "38", "timestamp": 17969.39}
{"type": "machine_available", "resources": "38", "timestamp": 19769.39}
{"type": "machine_unavailable", "resources": "99", "timestamp": 17970.75}
{"type": "machine_available", "resources": "99", "timestamp": 19770.75}
{"type": "machine_unavailable", "resources": "56", "timestamp": 17980.5}
{"type": "machine_available", "resources": "56", "timestamp": 19780.5}
{"type": "machine_unavailable", "resources": "39", "timestamp": 17985.43}
{"type": "machine_available", "resources": "39", "timestamp": 19785.43}
{"type": "machine_unavailable", "resources": "75", "timestamp": 17988.18}
{"type": "machine_available", "resources": "75", "timestamp": 19788.18}
{"type": "machine_unavailable", "resources": "8", "timestamp": 17994.98}
{"type": "machine_available", "resources": "8", "timestamp": 19794.98}
{"type": "machine_unavailable", "resources": "43", "timestamp": 18004.59}
{"type": "machine_available", "resources": "43", "timestamp": 19804.59}
{"type": "machine_unavailable", "resources": "1", "timestamp": 18005.15}
{"type": "machine_available", "resources": "1", "timestamp": 19805.15}
{"type": "machine_unavailable", "resources": "7", "timestamp": 18008.09}
{"type": "machine_available", "resources": "7", "timestamp": 19808.09}
{"type": "machine_unavailable", "resources": "29", "timestamp": 18009.97}
{"type": "machine_available", "resources": "29", "timestamp": 19809.97}
{"type": "machine_unavailable", "resources": "93", "timestamp": 18011.37}
{"type": "machine_available", "resources": "93", "timestamp": 19811.37}
{"type": "machine_unavailable", "resources": "36", "timestamp": 18012.27}
{"type": "machine_available", "resources": "36", "timestamp": 19812.27}
{"type": "machine_unavailable", "resources": "32", "timestamp": 18075.09}
{"type": "machine_available", "resources": "32", "timestamp": 19875.09}
{"type": "machine_unavailable", "resources": "76", "timestamp": 18116.94}
{"type": "machine_available", "resources": "76", "timestamp": 19916.94}
{"type": "machine_unavailable", "resources": "92", "timestamp": 18119.71}
{"type": "machine_available", "resources": "92", "timestamp": 19919.71}
{"type": "machine_unavailable", "resources": "62", "timestamp": 18162.02}
{"type": "machine_available", "resources": "62", "timestamp": 19962.02}
{"type": "machine_unavailable", "resources": "48", "timestamp": 18200.44}
{"type": "machine_available", "resources": "48", "timestamp": 20000.44}
{"type": "machine_unavailable", "resources": "18", "timestamp": 18212.27}
{"type": "machine_available", "resources": "18", "timestamp": 20012.27}
{"type": "machine_unavailable", "resources": "83", "timestamp": 18265.65}
{"type": "machine_available", "resources": "83", "timestamp": 20065.65}
{"type": "machine_unavailable", "resources": "42", "timestamp": 18273.94}
{"type": "machine_available", "resources": "42", "timestamp": 20073.94}
{"type": "machine_unavailable", "resources": "58", "timestamp": 18333.82}
{"type": "machine_available", "resources": "58", "timestamp": 20133.82}
{"type": "machine_unavailable", "resources": "41", "timestamp": 18469.84}
{"type": "machine_available", "resources": "41", "timestamp": 20269.84}
{"type": "machine_unavailable", "resources": "34", "timestamp": 18497.27}
{"type": "machine_available", "resources": "34", "timestamp": 20297.27}
{"type": "machine_unavailable", "resources": "52", "timestamp": 18594.26}
{"type": "machine_available", "resources": "52", "timestamp": 20394.26}
{"type": "machine_unavailable", "resources": "61", "timestamp": 18641.42}
{"type": "machine_available", "resources": "61", "timestamp": 20441.42}
{"type": "machine_unavailable", "resources": "63", "timestamp": 18731.64}
{"type": "machine_available", "resources": "63", "timestamp": 20531.64}
{"type": "machine_unavailable", "resources": "15", "timestamp": 18749.63}
{"type": "machine_available", "resources": "15", "timestamp": 20549.63}
{"type": "machine_unavailable", "resources": "87", "timestamp": 18841.64}
{"type": "machine_available", "resources": "87", "timestamp": 20641.64}
{"type": "machine_unavailable", "resources": "25", "timestamp": 18851.37}
{"type": "machine_available", "resources": "25", "timestamp": 20651.37}
{"type": "machine_unavailable", "resources": "97", "timestamp": 18868.18}
{"type": "machine_available", "resources": "97", "timestamp": 20668.18}
{"type": "machine_unavailable", "resources": "94", "timestamp": 18890.66}
{"type": "machine_available", "resources": "94", "timestamp": 20690.66}
{"type": "machine_unavailable", "resources": "28", "timestamp": 18895.97}
{"type": "machine_available", "resources": "28", "timestamp": 20695.97}
{"type": "machine_unavailable", "resources": "86", "timestamp": 18932.94}
{"type": "machine_available", "resources": "86", "timestamp": 20732.94}
{"type": "machine_unavailable", "resources": "5", "timestamp": 18959.4}
{"type": "machine_available", "resources": "5", "timestamp": 20759.4}
{"type": "machine_unavailable", "resources": "13", "timestamp": 19025.42}
{"type": "machine_available", "resources": "13", "timestamp": 20825.42}
{"type": "machine_unavailable", "resources": "71", "timestamp": 19034.95}
{"type": "machine_available", "resources": "71", "timestamp": 20834.95}
{"type": "machine_unavailable", "resources": "84", "timestamp": 19068.36}
{"type": "machine_available", "resources": "84", "timestamp": 20868.36}
{"type": "machine_unavailable", "resources": "11", "timestamp": 19078.55}
{"type": "machine_available", "resources": "11", "timestamp": 20878.55}
{"type": "machine_unavailable", "resources": "89", "timestamp": 19098.42}
{"type": "machine_available", "resources": "89", "timestamp": 20898.42}
{"type": "machine_unavailable", "resources": "60", "timestamp": 19105.01}
{"type": "machine_available", "resources": "60", "timestamp": 20905.01}
{"type": "machine_unavailable", "resources": "77", "timestamp": 19118.59}
{"type": "machine_available", "resources": "77", "timestamp": 20918.59}
{"type": "machine_unavailable", "resources": "20", "timestamp": 19170.25}
{"type": "machine_available", "resources": "20", "timestamp": 20970.25}
{"type": "machine_unavailable", "resources": "85", "timestamp": 19242.73}
{"type": "machine_available", "resources": "85", "timestamp": 21042.73}
{"type": "machine_unavailable", "resources": "27", "timestamp": 19242.91}
{"type": "machine_available", "resources": "27", "timestamp": 21042.91}
{"type": "machine_unavailable", "resources": "4", "timestamp": 19278.49}
{"type": "machine_available", "resources": "4", "timestamp": 21078.49}
{"type": "machine_unavailable", "resources": "26", "timestamp": 19284.28}
{"type": "machine_available", "resources": "26", "timestamp": 21084.28}
{"type": "machine_unavailable", "resources": "49", "timestamp": 19465.74}
{"type": "machine_available", "resources": "49", "timestamp": 21265.74}
{"type": "machine_unavailable", "resources": "78", "timestamp": 19506.75}
{"type": "machine_available", "resources": "78", "timestamp": 21306.75}
{"type": "machine_unavailable", "resources": "21", "timestamp": 19603.49}
{"type": "machine_available", "resources": "21", "timestamp": 21403.49}
{"type": "machine_unavailable", "resources": "46", "timestamp": 19625.58}
{"type": "machine_available", "resources": "46", "timestamp": 21425.58}
{"type": "machine_unavailable", "resources": "50", "timestamp": 19694.71}
{"type": "machine_available", "resources": "50", "timestamp": 21494.71}
{"type": "machine_unavailable", "resources": "9", "timestamp": 19716.06}
{"type": "machine_available", "resources": "9", "timestamp": 21516.06}
{"type": "machine_unavailable", "resources": "10", "timestamp": 19754.78}
{"type": "machine_available", "resources": "10", "timestamp": 21554.78}
{"type": "machine_unavailable", "resources": "35", "timestamp": 19782.7}
{"type": "machine_available", "resources": "35", "timestamp": 21582.7}
{"type": "machine_unavailable", "resources": "6", "timestamp": 19800.74}
{"type": "machine_available", "resources": "6", "timestamp": 21600.74}
{"type": "machine_unavailable", "resources": "57", "timestamp": 19805.15}
{"type": "machine_available", "resources": "57", "timestamp": 21605.15}
{"type": "machine_unavailable", "resources": "8", "timestamp": 19833.74}
{"type": "machine_available", "resources": "8", "timestamp": 21633.74}
{"type": "machine_unavailable", "resources": "59", "timestamp": 19862.19}
{"type": "machine_available", "resources": "59", "timestamp": 21662.19}
{"type": "machine_unavailable", "resources": "70", "timestamp": 19866.65}
{"type": "machine_available", "resources": "70", "timestamp": 21666.65}
{"type": "machine_unavailable", "resources": "17", "timestamp": 19972.98}
{"type": "machine_available", "resources": "17", "timestamp": 21772.98}
{"type": "machine_unavailable", "resources": "30", "timestamp": 20014.55}
{"type": "machine_available", "resources": "30", "timestamp": 21814.55}
