{"type": "machine_unavailable", "resources": "71", "timestamp": 18.07}
{"type": "machine_available", "resources": "71", "timestamp": 1818.07}
{"type": "machine_unavailable", "resources": "99", "timestamp": 76.39}
{"type": "machine_available", "resources": "99", "timestamp": 1876.39}
{"type": "machine_unavailable", "resources": "65", "timestamp": 95.19}
{"type": "machine_available", "resources": "65", "timestamp": 1895.19}
{"type": "machine_unavailable", "resources": "24", "timestamp": 153.13}
{"type": "machine_available", "resources": "24", "timestamp": 1953.13}
{"type": "machine_unavailable", "resources": "60", "timestamp": 159.25}
{"type": "machine_available", "resources": "60", "timestamp": 1959.25}
{"type": "machine_unavailable", "resources": "23", "timestamp": 189.07}
{"type": "machine_available", "resources": "23", "timestamp": 1989.07}
{"type": "machine_unavailable", "resources": "38", "timestamp": 192.04}
{"type": "machine_available", "resources": "38", "timestamp": 1992.04}
{"type": "machine_unavailable", "resources": "68", "timestamp": 196.63}
{"type": "machine_available", "resources": "68", "timestamp": 1996.63}
{"type": "machine_unavailable", "resources": "88", "timestamp": 246.4}
{"type": "machine_available", "resources": "88", "timestamp": 2046.4}
{"type": "machine_unavailable", "resources": "76", "timestamp": 276.59}
{"type": "machine_available", "resources": "76", "timestamp": 2076.59}
{"type": "machine_unavailable", "resources": "57", "timestamp": 397.44}
{"type": "machine_available", "resources": "57", "timestamp": 2197.44}
{"type": "machine_unavailable", "resources": "78", "timestamp": 429.27}
{"type": "machine_available", "resources": "78", "timestamp": 2229.27}
{"type": "machine_unavailable", "resources": "79", "timestamp": 460.77}
{"type": "machine_available", "resources": "79", "timestamp": 2260.77}
{"type": "machine_unavailable", "resources": "67", "timestamp": 461.22}
{"type": "machine_available", "resources": "67", "timestamp": 2261.22}
{"type": "machine_unavailable", "resources": "4", "timestamp": 463.18}
{"type": "machine_available", "resources": "4", "timestamp": 2263.18}
{"type": "machine_unavailable", "resources": "30", "timestamp": 469.51}
{"type": "machine_available", "resources": "30", "timestamp": 2269.51}
{"type": "machine_unavailable", "resources": "59", "timestamp": 496.97}
{"type": "machine_available", "resources": "59", "timestamp": 2296.97}
{"type": "machine_unavailable", "resources": "75", "timestamp": 508.82}
{"type": "machine_available", "resources": "75", "timestamp": 2308.82}
{"type": "machine_unavailable", "resources": "66", "timestamp": 564.26}
{"type": "machine_available", "resources": "66", "timestamp": 2364.26}
{"type": "machine_unavailable", "resources": "37", "timestamp": 572.24}
{"type": "machine_available", "resources": "37", "timestamp": 2372.24}
{"type": "machine_unavailable", "resources": "84", "timestamp": 593.02}
{"type": "machine_available", "resources": "84", "timestamp": 2393.02}
{"type": "machine_unavailable", "resources": "83", "timestamp": 595.68}
{"type": "machine_available", "resources": "83", "timestamp": 2395.68}
{"type": "machine_unavailable", "resources": "70", "timestamp": 605.46}
{"type": "machine_available", "resources": "70", "timestamp": 2405.46}
{"type": "machine_unavailable", "resources": "10", "timestamp": 768.88}
{"type": "machine_available", "resources": "10", "timestamp": 2568.88}
{"type": "machine_unavailable", "resources": "40", "timestamp": 805.79}
{"type": "machine_available", "resources": "40", "timestamp": 2605.79}
{"type": "machine_unavailable", "resources": "36", "timestamp": 848.35}
{"type": "machine_available", "resources": "36", "timestamp": 2648.35}
{"type": "machine_unavailable", "resources": "72", "timestamp": 849.26}
{"type": "machine_available", "resources": "72", "timestamp": 2649.26}
{"type": "machine_unavailable", "resources": "51", "timestamp": 892.87}
{"type": "machine_available", "resources": "51", "timestamp": 2692.87}
{"type": "machine_unavailable", "resources": "49", "timestamp": 896.29}
{"type": "machine_available", "resources": "49", "timestamp": 2696.29}
{"type": "machine_unavailable", "resources": "2", "timestamp": 898.36}
{"type": "machine_available", "resources": "2", "timestamp": 2698.36}
{"type": "machine_unavailable", "resources": "0", "timestamp": 954.74}
{"type": "machine_available", "resources": "0", "timestamp": 2754.74}
{"type": "machine_unavailable", "resources": "6", "timestamp": 961.94}
{"type": "machine_available", "resources": "6", "timestamp": 2761.94}
{"type": "machine_unavailable", "resources": "90", "timestamp": 980.99}
{"type": "machine_available", "resources": "90", "timestamp": 2780.99}
{"type": "machine_unavailable", "resources": "9", "timestamp": 996.19}
{"type": "machine_available", "resources": "9", "timestamp": 2796.19}
{"type": "machine_unavailable", "resources": "25", "timestamp": 1021.25}
{"type": "machine_available", "resources": "25", "timestamp": 2821.25}
{"type": "machine_unavailable", "resources": "34", "timestamp": 1066.47}
{"type": "machine_available", "resources": "34", "timestamp": 2866.47}
{"type": "machine_unavailable", "resources": "39", "timestamp": 1078.79}
{"type": "machine_available", "resources": "39", "timestamp": 2878.79}
{"type": "machine_unavailable", "resources": "52", "timestamp": 1090.92}
{"type": "machine_available", "resources": "52", "timestamp": 2890.92}
{"type": "machine_unavailable", "resources": "15", "timestamp": 1133.49}
{"type": "machine_available", "resources": "15", "timestamp": 2933.49}
{"type": "machine_unavailable", "resources": "12", "timestamp": 1137.83}
{"type": "machine_available", "resources": "12", "timestamp": 2937.83}
{"type": "machine_unavailable", "resources": "62", "timestamp": 1138.16}
{"type": "machine_available", "resources": "62", "timestamp": 2938.16}
{"type": "machine_unavailable", "resources": "58", "timestamp": 1144.03}
{"type": "machine_available", "resources": "58", "timestamp": 2944.03}
{"type": "machine_unavailable", "resources": "93", "timestamp": 1165.36}
{"type": "machine_available", "resources": "93", "timestamp": 2965.36}
{"type": "machine_unavailable", "resources": "53", "timestamp": 1209.39}
{"type": "machine_available", "resources": "53", "timestamp": 3009.39}
{"type": "machine_unavailable", "resources": "14", "timestamp": 1240.35}
{"type": "machine_available", "resources": "14", "timestamp": 3040.35}
{"type": "machine_unavailable", "resources": "27", "timestamp": 1255.42}
{"type": "machine_available", "resources": "27", "timestamp": 3055.42}
{"type": "machine_unavailable", "resources": "54", "timestamp": 1255.43}
{"type": "machine_available", "resources": "54", "timestamp": 3055.43}
{"type": "machine_unavailable", "resources": "77", "timestamp": 1419.87}
{"type": "machine_available", "resources": "77", "timestamp": 3219.87}
{"type": "machine_unavailable", "resources": "5", "timestamp": 1450.67}
{"type": "machine_available", "resources": "5", "timestamp": 3250.67}
{"type": "machine_unavailable", "resources": "56", "timestamp": 1586.8}
{"type": "machine_available", "resources": "56", "timestamp": 3386.8}
{"type": "machine_unavailable", "resources": "98", "timestamp": 1595.76}
{"type": "machine_available", "resources": "98", "timestamp": 3395.76}
{"type": "machine_unavailable", "resources": "13", "timestamp": 1624.03}
{"type": "machine_available", "resources": "13", "timestamp": 3424.03}
{"type": "machine_unavailable", "resources": "81", "timestamp": 1631.05}
{"type": "machine_available", "resources": "81", "timestamp": 3431.05}
{"type": "machine_unavailable", "resources": "47", "timestamp": 1639.4}
{"type": "machine_available", "resources": "47", "timestamp": 3439.4}
{"type": "machine_unavailable", "resources": "16", "timestamp": 1653.34}
{"type": "machine_available", "resources": "16", "timestamp": 3453.34}
{"type": "machine_unavailable", "resources": "61", "timestamp": 1749.26}
{"type": "machine_available", "resources": "61", "timestamp": 3549.26}
{"type": "machine_unavailable", "resources": "17", "timestamp": 1802.84}
{"type": "machine_available", "resources": "17", "timestamp": 3602.84}
{"type": "machine_unavailable", "resources": "80", "timestamp": 1863.26}
{"type": "machine_available", "resources": "80", "timestamp": 3663.26}
{"type": "machine_unavailable", "resources": "29", "timestamp": 1868.28}
{"type": "machine_available", "resources": "29", "timestamp": 3668.28}
{"type": "machine_unavailable", "resources": "31", "timestamp": 1919.36}
{"type": "machine_available", "resources": "31", "timestamp": 3719.36}
{"type": "machine_unavailable", "resources": "20", "timestamp": 1958.13}
{"type": "machine_available", "resources": "20", "timestamp": 3758.13}
{"type": "machine_unavailable", "resources": "50", "timestamp": 1998.48}
{"type": "machine_available", "resources": "50", "timestamp": 3798.48}
{"type": "machine_unavailable", "resources": "71", "timestamp": 2062.64}
{"type": "machine_available", "resources": "71", "timestamp": 3862.64}
{"type": "machine_unavailable", "resources": "94", "timestamp": 2161.29}
{"type": "machine_available", "resources": "94", "timestamp": 3961.29}
{"type": "machine_unavailable", "resources": "32", "timestamp": 2197.87}
{"type": "machine_available", "resources": "32", "timestamp": 3997.87}
{"type": "machine_unavailable", "resources": "76", "timestamp": 2214.25}
{"type": "machine_available", "resources": "76", "timestamp": 4014.25}
{"type": "machine_unavailable", "resources": "22", "timestamp": 2234.51}
{"type": "machine_available", "resources": "22", "timestamp": 4034.51}
{"type": "machine_unavailable", "resources": "8", "timestamp": 2313.96}
{"type": "machine_available", "resources": "8", "timestamp": 4113.96}
{"type": "machine_unavailable", "resources": "79", "timestamp": 2318.01}
{"type": "machine_available", "resources": "79", "timestamp": 4118.01}
{"type": "machine_unavailable", "resources": "35", "timestamp": 2346.59}
{"type": "machine_available", "resources": "35", "timestamp": 4146.59}
{"type": "machine_unavailable", "resources": "26", "timestamp": 2353.75}
{"type": "machine_available", "resources": "26", "timestamp": 4153.75}
{"type": "machine_unavailable", "resources": "59", "timestamp": 2395.22}
{"type": "machine_available", "resources": "59", "timestamp": 4195.22}
{"type": "machine_unavailable", "resources": "37", "timestamp": 2403.81}
{"type": "machine_available", "resources": "37", "timestamp": 4203.81}
{"type": "machine_unavailable", "resources": "73", "timestamp": 2417.61}
{"type": "machine_available", "resources": "73", "timestamp": 4217.61}
{"type": "machine_unavailable", "resources": "11", "timestamp": 2526.04}
{"type": "machine_available", "resources": "11", "timestamp": 4326.04}
{"type": "machine_unavailable", "resources": "57", "timestamp": 2539.53}
{"type": "machine_available", "resources": "57", "timestamp": 4339.53}
{"type": "machine_unavailable", "resources": "84", "timestamp": 2657.64}
{"type": "machine_available", "resources": "84", "timestamp": 4457.64}
{"type": "machine_unavailable", "resources": "66", "timestamp": 2697.24}
{"type": "machine_available", "resources": "66", "timestamp": 4497.24}
{"type": "machine_unavailable", "resources": "75", "timestamp": 2723.58}
{"type": "machine_available", "resources": "75", "timestamp": 4523.58}
{"type": "machine_unavailable", "resources": "2", "timestamp": 2724.65}
{"type": "machine_available", "resources": "2", "timestamp": 4524.65}
{"type": "machine_unavailable", "resources": "45", "timestamp": 2743.97}
{"type": "machine_available", "resources": "45", "timestamp": 4543.97}
{"type": "machine_unavailable", "resources": "4", "timestamp": 2780.19}
{"type": "machine_available", "resources": "4", "timestamp": 4580.19}
{"type": "machine_unavailable", "resources": "96", "timestamp": 2780.83}
{"type": "machine_available", "resources": "96", "timestamp": 4580.83}
{"type": "machine_unavailable", "resources": "10", "timestamp": 2792.01}
{"type": "machine_available", "resources": "10", "timestamp": 4592.01}
{"type": "machine_unavailable", "resources": "97", "timestamp": 2810.11}
{"type": "machine_available", "resources": "97", "timestamp": 4610.11}
{"type": "machine_unavailable", "resources": "43", "timestamp": 2846.6}
{"type": "machine_available", "resources": "43", "timestamp": 4646.6}
{"type": "machine_unavailable", "resources": "87", "timestamp": 2859.61}
{"type": "machine_available", "resources": "87", "timestamp": 4659.61}
{"type": "machine_unavailable", "resources": "9", "timestamp": 2878.84}
{"type": "machine_available", "resources": "9", "timestamp": 4678.84}
{"type": "machine_unavailable", "resources": "3", "timestamp": 2940.3}
{"type": "machine_available", "resources": "3", "timestamp": 4740.3}
{"type": "machine_unavailable", "resources": "1", "timestamp": 3000.04}
{"type": "machine_available", "resources": "1", "timestamp": 4800.04}
{"type": "machine_unavailable", "resources": "48", "timestamp": 3029.46}
{"type": "machine_available", "resources": "48", "timestamp": 4829.46}
{"type": "machine_unavailable", "resources": "85", "timestamp": 3043.76}
{"type": "machine_available", "resources": "85", "timestamp": 4843.76}
{"type": "machine_unavailable", "resources": "53", "timestamp": 3047.44}
{"type": "machine_available", "resources": "53", "timestamp": 4847.44}
{"type": "machine_unavailable", "resources": "49", "timestamp": 3086.52}
{"type": "machine_available", "resources": "49", "timestamp": 4886.52}
{"type": "machine_unavailable", "resources": "88", "timestamp": 3168.18}
{"type": "machine_available", "resources": "88", "timestamp": 4968.18}
{"type": "machine_unavailable", "resources": "70", "timestamp": 3194.27}
{"type": "machine_available", "resources": "70", "timestamp": 4994.27}
{"type": "machine_unavailable", "resources": "65", "timestamp": 3196.9}
{"type": "machine_available", "resources": "65", "timestamp": 4996.9}
{"type": "machine_unavailable", "resources": "62", "timestamp": 3197.81}
{"type": "machine_available", "resources": "62", "timestamp": 4997.81}
{"type": "machine_unavailable", "resources": "89", "timestamp": 3198.49}
{"type": "machine_available", "resources": "89", "timestamp": 4998.49}
{"type": "machine_unavailable", "resources": "99", "timestamp": 3202.08}
{"type": "machine_available", "resources": "99", "timestamp": 5002.08}
{"type": "machine_unavailable", "resources": "40", "timestamp": 3230.68}
{"type": "machine_available", "resources": "40", "timestamp": 5030.68}
{"type": "machine_unavailable", "resources": "78", "timestamp": 3235.32}
{"type": "machine_available", "resources": "78", "timestamp": 5035.32}
{"type": "machine_unavailable", "resources": "21", "timestamp": 3242.11}
{"type": "machine_available", "resources": "21", "timestamp": 5042.11}
{"type": "machine_unavailable", "resources": "64", "timestamp": 3284.15}
{"type": "machine_available", "resources": "64", "timestamp": 5084.15}
{"type": "machine_unavailable", "resources": "41", "timestamp": 3350.84}
{"type": "machine_available", "resources": "41", "timestamp": 5150.84}
{"type": "machine_unavailable", "resources": "25", "timestamp": 3366.4}
{"type": "machine_available", "resources": "25", "timestamp": 5166.4}
{"type": "machine_unavailable", "resources": "28", "timestamp": 3396.57}
{"type": "machine_available", "resources": "28", "timestamp": 5196.57}
{"type": "machine_unavailable", "resources": "74", "timestamp": 3411.13}
{"type": "machine_available", "resources": "74", "timestamp": 5211.13}
{"type": "machine_unavailable", "resources": "18", "timestamp": 3487.2}
{"type": "machine_available", "resources": "18", "timestamp": 5287.2}
{"type": "machine_unavailable", "resources": "5", "timestamp": 3507.78}
{"type": "machine_available", "resources": "5", "timestamp": 5307.78}
{"type": "machine_unavailable", "resources": "14", "timestamp": 3545.04}
{"type": "machine_available", "resources": "14", "timestamp": 5345.04}
{"type": "machine_unavailable", "resources": "27", "timestamp": 3563.01}
{"type": "machine_available", "resources": "27", "timestamp": 5363.01}
{"type": "machine_unavailable", "resources": "63", "timestamp": 3616.33}
{"type": "machine_available", "resources": "63", "timestamp": 5416.33}
{"type": "machine_unavailable", "resources": "91", "timestamp": 3649.79}
{"type": "machine_available", "resources": "91", "timestamp": 5449.79}
{"type": "machine_unavailable", "resources": "82", "timestamp": 3704.6}
{"type": "machine_available", "resources": "82", "timestamp": 5504.6}
{"type": "machine_unavailable", "resources": "90", "timestamp": 3705.87}
{"type": "machine_available", "resources": "90", "timestamp": 5505.87}
{"type": "machine_unavailable", "resources": "39", "timestamp": 3715.77}
{"type": "machine_available", "resources": "39", "timestamp": 5515.77}
{"type": "machine_unavailable", "resources": "72", "timestamp": 3747.2}
{"type": "machine_available", "resources": "72", "timestamp": 5547.2}
{"type": "machine_unavailable", "resources": "17", "timestamp": 3747.78}
{"type": "machine_available", "resources": "17", "timestamp": 5547.78}
{"type": "machine_unavailable", "resources": "24", "timestamp": 3763.37}
{"type": "machine_available", "resources": "24", "timestamp": 5563.37}
{"type": "machine_unavailable", "resources": "34", "timestamp": 3764.12}
{"type": "machine_available", "resources": "34", "timestamp": 5564.12}
{"type": "machine_unavailable", "resources": "6", "timestamp": 3772.25}
{"type": "machine_available", "resources": "6", "timestamp": 5572.25}
{"type": "machine_unavailable", "resources": "13", "timestamp": 3896.33}
{"type": "machine_available", "resources": "13", "timestamp": 5696.33}
{"type": "machine_unavailable", "resources": "83", "timestamp": 3926.15}
{"type": "machine_available", "resources": "83", "timestamp": 5726.15}
{"type": "machine_unavailable", "resources": "47", "timestamp": 3956.79}
{"type": "machine_available", "resources": "47", "timestamp": 5756.79}
{"type": "machine_unavailable", "resources": "22", "timestamp": 4052.22}
{"type": "machine_available", "resources": "22", "timestamp": 5852.22}
{"type": "machine_unavailable", "resources": "60", "timestamp": 4089.8}
{"type": "machine_available", "resources": "60", "timestamp": 5889.8}
{"type": "machine_unavailable", "resources": "29", "timestamp": 4112.76}
{"type": "machine_available", "resources": "29", "timestamp": 5912.76}
{"type": "machine_unavailable", "resources": "44", "timestamp": 4122.3}
{"type": "machine_available", "resources": "44", "timestamp": 5922.3}
{"type": "machine_unavailable", "resources": "79", "timestamp": 4145.58}
{"type": "machine_available", "resources": "79", "timestamp": 5945.58}
{"type": "machine_unavailable", "resources": "20", "timestamp": 4318.0}
{"type": "machine_available", "resources": "20", "timestamp": 6118.0}
{"type": "machine_unavailable", "resources": "11", "timestamp": 4333.0}
{"type": "machine_available", "resources": "11", "timestamp": 6133.0}
{"type": "machine_unavailable", "resources": "92", "timestamp": 4348.85}
{"type": "machine_available", "resources": "92", "timestamp": 6148.85}
{"type": "machine_unavailable", "resources": "57", "timestamp": 4363.58}
{"type": "machine_available", "resources": "57", "timestamp": 6163.58}
{"type": "machine_unavailable", "resources": "80", "timestamp": 4381.71}
{"type": "machine_available", "resources": "80", "timestamp": 6181.71}
{"type": "machine_unavailable", "resources": "0", "timestamp": 4447.21}
{"type": "machine_available", "resources": "0", "timestamp": 6247.21}
{"type": "machine_unavailable", "resources": "26", "timestamp": 4461.4}
{"type": "machine_available", "resources": "26", "timestamp": 6261.4}
{"type": "machine_unavailable", "resources": "15", "timestamp": 4464.53}
{"type": "machine_available", "resources": "15", "timestamp": 6264.53}
{"type": "machine_unavailable", "resources": "71", "timestamp": 4471.73}
{"type": "machine_available", "resources": "71", "timestamp": 6271.73}
{"type": "machine_unavailable", "resources": "56", "timestamp": 4474.32}
{"type": "machine_available", "resources": "56", "timestamp": 6274.32}
{"type": "machine_unavailable", "resources": "98", "timestamp": 4486.88}
{"type": "machine_available", "resources": "98", "timestamp": 6286.88}
{"type": "machine_unavailable", "resources": "8", "timestamp": 4496.54}
{"type": "machine_available", "resources": "8", "timestamp": 6296.54}
{"type": "machine_unavailable", "resources": "69", "timestamp": 4513.35}
{"type": "machine_available", "resources": "69", "timestamp": 6313.35}
{"type": "machine_unavailable", "resources": "19", "timestamp": 4525.59}
{"type": "machine_available", "resources": "19", "timestamp": 6325.59}
{"type": "machine_unavailable", "resources": "66", "timestamp": 4784.92}
{"type": "machine_available", "resources": "66", "timestamp": 6584.92}
{"type": "machine_unavailable", "resources": "76", "timestamp": 4839.89}
{"type": "machine_available", "resources": "76", "timestamp": 6639.89}
{"type": "machine_unavailable", "resources": "97", "timestamp": 4929.26}
{"type": "machine_available", "resources": "97", "timestamp": 6729.26}
{"type": "machine_unavailable", "resources": "67", "timestamp": 4936.77}
{"type": "machine_available", "resources": "67", "timestamp": 6736.77}
{"type": "machine_unavailable", "resources": "93", "timestamp": 4961.32}
{"type": "machine_available", "resources": "93", "timestamp": 6761.32}
{"type": "machine_unavailable", "resources": "73", "timestamp": 4986.05}
{"type": "machine_available", "resources": "73", "timestamp": 6786.05}
{"type": "machine_unavailable", "resources": "85", "timestamp": 4994.94}
{"type": "machine_available", "resources": "85", "timestamp": 6794.94}
{"type": "machine_unavailable", "resources": "70", "timestamp": 5009.34}
{"type": "machine_available", "resources": "70", "timestamp": 6809.34}
{"type": "machine_unavailable", "resources": "53", "timestamp": 5018.9}
{"type": "machine_available", "resources": "53", "timestamp": 6818.9}
{"type": "machine_unavailable", "resources": "78", "timestamp": 5041.93}
{"type": "machine_available", "resources": "78", "timestamp": 6841.93}
{"type": "machine_unavailable", "resources": "68", "timestamp": 5056.13}
{"type": "machine_available", "resources": "68", "timestamp": 6856.13}
{"type": "machine_unavailable", "resources": "51", "timestamp": 5160.74}
{"type": "machine_available", "resources": "51", "timestamp": 6960.74}
{"type": "machine_unavailable", "resources": "23", "timestamp": 5184.3}
{"type": "machine_available", "resources": "23", "timestamp": 6984.3}
{"type": "machine_unavailable", "resources": "58", "timestamp": 5186.35}
{"type": "machine_available", "resources": "58", "timestamp": 6986.35}
{"type": "machine_unavailable", "resources": "31", "timestamp": 5202.37}
{"type": "machine_available", "resources": "31", "timestamp": 7002.37}
{"type": "machine_unavailable", "resources": "16", "timestamp": 5221.6}
{"type": "machine_available", "resources": "16", "timestamp": 7021.6}
{"type": "machine_unavailable", "resources": "40", "timestamp": 5234.05}
{"type": "machine_available", "resources": "40", "timestamp": 7034.05}
{"type": "machine_unavailable", "resources": "3", "timestamp": 5237.5}
{"type": "machine_available", "resources": "3", "timestamp": 7037.5}
{"type": "machine_unavailable", "resources": "89", "timestamp": 5315.32}
{"type": "machine_available", "resources": "89", "timestamp": 7115.32}
{"type": "machine_unavailable", "resources": "2", "timestamp": 5360.65}
{"type": "machine_available", "resources": "2", "timestamp": 7160.65}
{"type": "machine_unavailable", "resources": "1", "timestamp": 5361.74}
{"type": "machine_available", "resources": "1", "timestamp": 7161.74}
{"type": "machine_unavailable", "resources": "41", "timestamp": 5396.59}
{"type": "machine_available", "resources": "41", "timestamp": 7196.59}
{"type": "machine_unavailable", "resources": "63", "timestamp": 5435.17}
{"type": "machine_available", "resources": "63", "timestamp": 7235.17}
{"type": "machine_unavailable", "resources": "74", "timestamp": 5438.49}
{"type": "machine_available", "resources": "74", "timestamp": 7238.49}
{"type": "machine_unavailable", "resources": "65", "timestamp": 5442.42}
{"type": "machine_available", "resources": "65", "timestamp": 7242.42}
{"type": "machine_unavailable", "resources": "91", "timestamp": 5471.73}
{"type": "machine_available", "resources": "91", "timestamp": 7271.73}
{"type": "machine_unavailable", "resources": "55", "timestamp": 5478.34}
{"type": "machine_available", "resources": "55", "timestamp": 7278.34}
{"type": "machine_unavailable", "resources": "81", "timestamp": 5479.05}
{"type": "machine_available", "resources": "81", "timestamp": 7279.05}
{"type": "machine_unavailable", "resources": "27", "timestamp": 5495.05}
{"type": "machine_available", "resources": "27", "timestamp": 7295.05}
{"type": "machine_unavailable", "resources": "28", "timestamp": 5554.87}
{"type": "machine_available", "resources": "28", "timestamp": 7354.87}
{"type": "machine_unavailable", "resources": "75", "timestamp": 5612.04}
{"type": "machine_available", "resources": "75", "timestamp": 7412.04}
{"type": "machine_unavailable", "resources": "94", "timestamp": 5670.34}
{"type": "machine_available", "resources": "94", "timestamp": 7470.34}
{"type": "machine_unavailable", "resources": "42", "timestamp": 5700.0}
{"type": "machine_available", "resources": "42", "timestamp": 7500.0}
{"type": "machine_unavailable", "resources": "24", "timestamp": 5766.39}
{"type": "machine_available", "resources": "24", "timestamp": 7566.39}
{"type": "machine_unavailable", "resources": "12", "timestamp": 5773.77}
{"type": "machine_available", "resources": "12", "timestamp": 7573.77}
{"type": "machine_unavailable", "resources": "30", "timestamp": 5778.08}
{"type": "machine_available", "resources": "30", "timestamp": 7578.08}
{"type": "machine_unavailable", "resources": "33", "timestamp": 5782.35}
{"type": "machine_available", "resources": "33", "timestamp": 7582.35}
{"type": "machine_unavailable", "resources": "54", "timestamp": 5797.08}
{"type": "machine_available", "resources": "54", "timestamp": 7597.08}
{"type": "machine_unavailable", "resources": "90", "timestamp": 5826.75}
{"type": "machine_available", "resources": "90", "timestamp": 7626.75}
{"type": "machine_unavailable", "resources": "46", "timestamp": 5840.03}
{"type": "machine_available", "resources": "46", "timestamp": 7640.03}
{"type": "machine_unavailable", "resources": "64", "timestamp": 5843.71}
{"type": "machine_available", "resources": "64", "timestamp": 7643.71}
{"type": "machine_unavailable", "resources": "43", "timestamp": 5873.92}
{"type": "machine_available", "resources": "43", "timestamp": 7673.92}
{"type": "machine_unavailable", "resources": "87", "timestamp": 5894.88}
{"type": "machine_available", "resources": "87", "timestamp": 7694.88}
{"type": "machine_unavailable", "resources": "9", "timestamp": 5948.56}
{"type": "machine_available", "resources": "9", "timestamp": 7748.56}
{"type": "machine_unavailable", "resources": "4", "timestamp": 5968.3}
{"type": "machine_available", "resources": "4", "timestamp": 7768.3}
{"type": "machine_unavailable", "resources": "61", "timestamp": 6011.36}
{"type": "machine_available", "resources": "61", "timestamp": 7811.36}
{"type": "machine_unavailable", "resources": "14", "timestamp": 6016.11}
{"type": "machine_available", "resources": "14", "timestamp": 7816.11}
{"type": "machine_unavailable", "resources": "36", "timestamp": 6022.95}
{"type": "machine_available", "resources": "36", "timestamp": 7822.95}
{"type": "machine_unavailable", "resources": "7", "timestamp": 6101.42}
{"type": "machine_available", "resources": "7", "timestamp": 7901.42}
{"type": "machine_unavailable", "resources": "59", "timestamp": 6105.75}
{"type": "machine_available", "resources": "59", "timestamp": 7905.75}
{"type": "machine_unavailable", "resources": "84", "timestamp": 6108.17}
{"type": "machine_available", "resources": "84", "timestamp": 7908.17}
{"type": "machine_unavailable", "resources": "5", "timestamp": 6122.18}
{"type": "machine_available", "resources": "5", "timestamp": 7922.18}
{"type": "machine_unavailable", "resources": "52", "timestamp": 6177.97}
{"type": "machine_available", "resources": "52", "timestamp": 7977.97}
{"type": "machine_unavailable", "resources": "47", "timestamp": 6196.12}
{"type": "machine_available", "resources": "47", "timestamp": 7996.12}
{"type": "machine_unavailable", "resources": "77", "timestamp": 6211.71}
{"type": "machine_available", "resources": "77", "timestamp": 8011.71}
{"type": "machine_unavailable", "resources": "11", "timestamp": 6217.12}
{"type": "machine_available", "resources": "11", "timestamp": 8017.12}
{"type": "machine_unavailable", "resources": "80", "timestamp": 6265.66}
{"type": "machine_available", "resources": "80", "timestamp": 8065.66}
{"type": "machine_unavailable", "resources": "72", "timestamp": 6349.86}
{"type": "machine_available", "resources": "72", "timestamp": 8149.86}
{"type": "machine_unavailable", "resources": "99", "timestamp": 6377.32}
{"type": "machine_available", "resources": "99", "timestamp": 8177.32}
{"type": "machine_unavailable", "resources": "95", "timestamp": 6386.28}
{"type": "machine_available", "resources": "95", "timestamp": 8186.28}
{"type": "machine_unavailable", "resources": "20", "timestamp": 6427.04}
{"type": "machine_available", "resources": "20", "timestamp": 8227.04}
{"type": "machine_unavailable", "resources": "17", "timestamp": 6477.6}
{"type": "machine_available", "resources": "17", "timestamp": 8277.6}
{"type": "machine_unavailable", "resources": "88", "timestamp": 6545.66}
{"type": "machine_available", "resources": "88", "timestamp": 8345.66}
{"type": "machine_unavailable", "resources": "13", "timestamp": 6559.51}
{"type": "machine_available", "resources": "13", "timestamp": 8359.51}
{"type": "machine_unavailable", "resources": "45", "timestamp": 6559.83}
{"type": "machine_available", "resources": "45", "timestamp": 8359.83}
{"type": "machine_unavailable", "resources": "79", "timestamp": 6699.77}
{"type": "machine_available", "resources": "79", "timestamp": 8499.77}
{"type": "machine_unavailable", "resources": "34", "timestamp": 6701.3}
{"type": "machine_available", "resources": "34", "timestamp": 8501.3}
{"type": "machine_unavailable", "resources": "38", "timestamp": 6788.14}
{"type": "machine_available", "resources": "38", "timestamp": 8588.14}
{"type": "machine_unavailable", "resources": "73", "timestamp": 6800.51}
{"type": "machine_available", "resources": "73", "timestamp": 8600.51}
{"type": "machine_unavailable", "resources": "49", "timestamp": 6806.54}
{"type": "machine_available", "resources": "49", "timestamp": 8606.54}
{"type": "machine_unavailable", "resources": "82", "timestamp": 6828.23}
{"type": "machine_available", "resources": "82", "timestamp": 8628.23}
{"type": "machine_unavailable", "resources": "15", "timestamp": 6835.42}
{"type": "machine_available", "resources": "15", "timestamp": 8635.42}
{"type": "machine_unavailable", "resources": "98", "timestamp": 6878.45}
{"type": "machine_available", "resources": "98", "timestamp": 8678.45}
{"type": "machine_unavailable", "resources": "56", "timestamp": 6886.57}
{"type": "machine_available", "resources": "56", "timestamp": 8686.57}
{"type": "machine_unavailable", "resources": "6", "timestamp": 6901.97}
{"type": "machine_available", "resources": "6", "timestamp": 8701.97}
{"type": "machine_unavailable", "resources": "48", "timestamp": 6944.95}
{"type": "machine_available", "resources": "48", "timestamp": 8744.95}
{"type": "machine_unavailable", "resources": "32", "timestamp": 6945.28}
{"type": "machine_available", "resources": "32", "timestamp": 8745.28}
{"type": "machine_unavailable", "resources": "70", "timestamp": 6954.96}
{"type": "machine_available", "resources": "70", "timestamp": 8754.96}
{"type": "machine_unavailable", "resources": "53", "timestamp": 6978.29}
{"type": "machine_available", "resources": "53", "timestamp": 8778.29}
{"type": "machine_unavailable", "resources": "57", "timestamp": 7080.75}
{"type": "machine_available", "resources": "57", "timestamp": 8880.75}
{"type": "machine_unavailable", "resources": "50", "timestamp": 7130.5}
{"type": "machine_available", "resources": "50", "timestamp": 8930.5}
{"type": "machine_unavailable", "resources": "21", "timestamp": 7210.34}
{"type": "machine_available", "resources": "21", "timestamp": 9010.34}
{"type": "machine_unavailable", "resources": "69", "timestamp": 7268.41}
{"type": "machine_available", "resources": "69", "timestamp": 9068.41}
{"type": "machine_unavailable", "resources": "71", "timestamp": 7296.75}
{"type": "machine_available", "resources": "71", "timestamp": 9096.75}
{"type": "machine_unavailable", "resources": "39", "timestamp": 7312.0}
{"type": "machine_available", "resources": "39", "timestamp": 9112.0}
{"type": "machine_unavailable", "resources": "37", "timestamp": 7325.65}
{"type": "machine_available", "resources": "37", "timestamp": 9125.65}
{"type": "machine_unavailable", "resources": "3", "timestamp": 7358.33}
{"type": "machine_available", "resources": "3", "timestamp": 9158.33}
{"type": "machine_unavailable", "resources": "31", "timestamp": 7358.75}
{"type": "machine_available", "resources": "31", "timestamp": 9158.75}
{"type": "machine_unavailable", "resources": "81", "timestamp": 7385.19}
{"type": "machine_available", "resources": "81", "timestamp": 9185.19}
{"type": "machine_unavailable", "resources": "96", "timestamp": 7390.3}
{"type": "machine_available", "resources": "96", "timestamp": 9190.3}
{"type": "machine_unavailable", "resources": "40", "timestamp": 7424.89}
{"type": "machine_available", "resources": "40", "timestamp": 9224.89}
{"type": "machine_unavailable", "resources": "74", "timestamp": 7466.28}
{"type": "machine_available", "resources": "74", "timestamp": 9266.28}
{"type": "machine_unavailable", "resources": "29", "timestamp": 7600.95}
{"type": "machine_available", "resources": "29", "timestamp": 9400.95}
{"type": "machine_unavailable", "resources": "97", "timestamp": 7617.79}
{"type": "machine_available", "resources": "97", "timestamp": 9417.79}
{"type": "machine_unavailable", "resources": "66", "timestamp": 7626.17}
{"type": "machine_available", "resources": "66", "timestamp": 9426.17}
{"type": "machine_unavailable", "resources": "92", "timestamp": 7629.28}
{"type": "machine_available", "resources": "92", "timestamp": 9429.28}
{"type": "machine_unavailable", "resources": "18", "timestamp": 7701.34}
{"type": "machine_available", "resources": "18", "timestamp": 9501.34}
{"type": "machine_unavailable", "resources": "91", "timestamp": 7816.98}
{"type": "machine_available", "resources": "91", "timestamp": 9616.98}
{"type": "machine_unavailable", "resources": "27", "timestamp": 7820.65}
{"type": "machine_available", "resources": "27", "timestamp": 9620.65}
{"type": "machine_unavailable", "resources": "67", "timestamp": 7879.88}
{"type": "machine_available", "resources": "67", "timestamp": 9679.88}
{"type": "machine_unavailable", "resources": "46", "timestamp": 7884.92}
{"type": "machine_available", "resources": "46", "timestamp": 9684.92}
{"type": "machine_unavailable", "resources": "85", "timestamp": 7902.47}
{"type": "machine_available", "resources": "85", "timestamp": 9702.47}
{"type": "machine_unavailable", "resources": "76", "timestamp": 7918.66}
{"type": "machine_available", "resources": "76", "timestamp": 9718.66}
{"type": "machine_unavailable", "resources": "87", "timestamp": 7927.78}
{"type": "machine_available", "resources": "87", "timestamp": 9727.78}
{"type": "machine_unavailable", "resources": "16", "timestamp": 7944.1}
{"type": "machine_available", "resources": "16", "timestamp": 9744.1}
{"type": "machine_unavailable", "resources": "14", "timestamp": 7952.27}
{"type": "machine_available", "resources": "14", "timestamp": 9752.27}
{"type": "machine_unavailable", "resources": "64", "timestamp": 7973.24}
{"type": "machine_available", "resources": "64", "timestamp": 9773.24}
{"type": "machine_unavailable", "resources": "35", "timestamp": 8002.66}
{"type": "machine_available", "resources": "35", "timestamp": 9802.66}
{"type": "machine_unavailable", "resources": "90", "timestamp": 8012.16}
{"type": "machine_available", "resources": "90", "timestamp": 9812.16}
{"type": "machine_unavailable", "resources": "30", "timestamp": 8039.03}
{"type": "machine_available", "resources": "30", "timestamp": 9839.03}
{"type": "machine_unavailable", "resources": "84", "timestamp": 8045.34}
{"type": "machine_available", "resources": "84", "timestamp": 9845.34}
{"type": "machine_unavailable", "resources": "5", "timestamp": 8119.55}
{"type": "machine_available", "resources": "5", "timestamp": 9919.55}
{"type": "machine_unavailable", "resources": "1", "timestamp": 8149.25}
{"type": "machine_available", "resources": "1", "timestamp": 9949.25}
{"type": "machine_unavailable", "resources": "54", "timestamp": 8158.73}
{"type": "machine_available", "resources": "54", "timestamp": 9958.73}
{"type": "machine_unavailable", "resources": "4", "timestamp": 8159.55}
{"type": "machine_available", "resources": "4", "timestamp": 9959.55}
{"type": "machine_unavailable", "resources": "9", "timestamp": 8162.79}
{"type": "machine_available", "resources": "9", "timestamp": 9962.79}
{"type": "machine_unavailable", "resources": "86", "timestamp": 8205.08}
{"type": "machine_available", "resources": "86", "timestamp": 10005.08}
{"type": "machine_unavailable", "resources": "80", "timestamp": 8210.34}
{"type": "machine_available", "resources": "80", "timestamp": 10010.34}
{"type": "machine_unavailable", "resources": "61", "timestamp": 8330.02}
{"type": "machine_available", "resources": "61", "timestamp": 10130.02}
{"type": "machine_unavailable", "resources": "26", "timestamp": 8349.55}
{"type": "machine_available", "resources": "26", "timestamp": 10149.55}
{"type": "machine_unavailable", "resources": "63", "timestamp": 8361.94}
{"type": "machine_available", "resources": "63", "timestamp": 10161.94}
{"type": "machine_unavailable", "resources": "58", "timestamp": 8402.91}
{"type": "machine_available", "resources": "58", "timestamp": 10202.91}
{"type": "machine_unavailable", "resources": "99", "timestamp": 8452.6}
{"type": "machine_available", "resources": "99", "timestamp": 10252.6}
{"type": "machine_unavailable", "resources": "95", "timestamp": 8459.79}
{"type": "machine_available", "resources": "95", "timestamp": 10259.79}
{"type": "machine_unavailable", "resources": "19", "timestamp": 8468.75}
{"type": "machine_available", "resources": "19", "timestamp": 10268.75}
{"type": "machine_unavailable", "resources": "83", "timestamp": 8482.56}
{"type": "machine_available", "resources": "83", "timestamp": 10282.56}
{"type": "machine_unavailable", "resources": "41", "timestamp": 8536.86}
{"type": "machine_available", "resources": "41", "timestamp": 10336.86}
{"type": "machine_unavailable", "resources": "23", "timestamp": 8547.17}
{"type": "machine_available", "resources": "23", "timestamp": 10347.17}
{"type": "machine_unavailable", "resources": "47", "timestamp": 8563.91}
{"type": "machine_available", "resources": "47", "timestamp": 10363.91}
{"type": "machine_unavailable", "resources": "59", "timestamp": 8589.98}
{"type": "machine_available", "resources": "59", "timestamp": 10389.98}
{"type": "machine_unavailable", "resources": "10", "timestamp": 8652.41}
{"type": "machine_available", "resources": "10", "timestamp": 10452.41}
{"type": "machine_unavailable", "resources": "55", "timestamp": 8675.94}
{"type": "machine_available", "resources": "55", "timestamp": 10475.94}
{"type": "machine_unavailable", "resources": "62", "timestamp": 8700.86}
{"type": "machine_available", "resources": "62", "timestamp": 10500.86}
{"type": "machine_unavailable", "resources": "38", "timestamp": 8751.53}
{"type": "machine_available", "resources": "38", "timestamp": 10551.53}
{"type": "machine_unavailable", "resources": "28", "timestamp": 8803.56}
{"type": "machine_available", "resources": "28", "timestamp": 10603.56}
{"type": "machine_unavailable", "resources": "77", "timestamp": 8876.03}
{"type": "machine_available", "resources": "77", "timestamp": 10676.03}
{"type": "machine_unavailable", "resources": "93", "timestamp": 8878.59}
{"type": "machine_available", "resources": "93", "timestamp": 10678.59}
{"type": "machine_unavailable", "resources": "36", "timestamp": 8921.93}
{"type": "machine_available", "resources": "36", "timestamp": 10721.93}
{"type": "machine_unavailable", "resources": "45", "timestamp": 8985.97}
{"type": "machine_available", "resources": "45", "timestamp": 10785.97}
{"type": "machine_unavailable", "resources": "15", "timestamp": 9018.09}
{"type": "machine_available", "resources": "15", "timestamp": 10818.09}
{"type": "machine_unavailable", "resources": "56", "timestamp": 9029.77}
{"type": "machine_available", "resources": "56", "timestamp": 10829.77}
{"type": "machine_unavailable", "resources": "57", "timestamp": 9055.04}
{"type": "machine_available", "resources": "57", "timestamp": 10855.04}
{"type": "machine_unavailable", "resources": "53", "timestamp": 9077.7}
{"type": "machine_available", "resources": "53", "timestamp": 10877.7}
{"type": "machine_unavailable", "resources": "31", "timestamp": 9180.75}
{"type": "machine_available", "resources": "31", "timestamp": 10980.75}
{"type": "machine_unavailable", "resources": "3", "timestamp": 9183.39}
{"type": "machine_available", "resources": "3", "timestamp": 10983.39}
{"type": "machine_unavailable", "resources": "50", "timestamp": 9196.93}
{"type": "machine_available", "resources": "50", "timestamp": 10996.93}
{"type": "machine_unavailable", "resources": "24", "timestamp": 9223.3}
{"type": "machine_available", "resources": "24", "timestamp": 11023.3}
{"type": "machine_unavailable", "resources": "49", "timestamp": 9263.58}
{"type": "machine_available", "resources": "49", "timestamp": 11063.58}
{"type": "machine_unavailable", "resources": "75", "timestamp": 9286.91}
{"type": "machine_available", "resources": "75", "timestamp": 11086.91}
{"type": "machine_unavailable", "resources": "22", "timestamp": 9311.73}
{"type": "machine_available", "resources": "22", "timestamp": 11111.73}
{"type": "machine_unavailable", "resources": "2", "timestamp": 9314.55}
{"type": "machine_available", "resources": "2", "timestamp": 11114.55}
{"type": "machine_unavailable", "resources": "7", "timestamp": 9322.05}
{"type": "machine_available", "resources": "7", "timestamp": 11122.05}
{"type": "machine_unavailable", "resources": "72", "timestamp": 9345.62}
{"type": "machine_available", "resources": "72", "timestamp": 11145.62}
{"type": "machine_unavailable", "resources": "8", "timestamp": 9356.14}
{"type": "machine_available", "resources": "8", "timestamp": 11156.14}
{"type": "machine_unavailable", "resources": "39", "timestamp": 9382.31}
{"type": "machine_available", "resources": "39", "timestamp": 11182.31}
{"type": "machine_unavailable", "resources": "42", "timestamp": 9428.85}
{"type": "machine_available", "resources": "42", "timestamp": 11228.85}
{"type": "machine_unavailable", "resources": "94", "timestamp": 9431.41}
{"type": "machine_available", "resources": "94", "timestamp": 11231.41}
{"type": "machine_unavailable", "resources": "40", "timestamp": 9434.75}
{"type": "machine_available", "resources": "40", "timestamp": 11234.75}
{"type": "machine_unavailable", "resources": "81", "timestamp": 9437.41}
{"type": "machine_available", "resources": "81", "timestamp": 11237.41}
{"type": "machine_unavailable", "resources": "12", "timestamp": 9469.21}
{"type": "machine_available", "resources": "12", "timestamp": 11269.21}
{"type": "machine_unavailable", "resources": "65", "timestamp": 9510.3}
{"type": "machine_available", "resources": "65", "timestamp": 11310.3}
{"type": "machine_unavailable", "resources": "66", "timestamp": 9553.79}
{"type": "machine_available", "resources": "66", "timestamp": 11353.79}
{"type": "machine_unavailable", "resources": "44", "timestamp": 9566.17}
{"type": "machine_available", "resources": "44", "timestamp": 11366.17}
{"type": "machine_unavailable", "resources": "17", "timestamp": 9578.54}
{"type": "machine_available", "resources": "17", "timestamp": 11378.54}
{"type": "machine_unavailable", "resources": "68", "timestamp": 9598.96}
{"type": "machine_available", "resources": "68", "timestamp": 11398.96}
{"type": "machine_unavailable", "resources": "79", "timestamp": 9647.97}
{"type": "machine_available", "resources": "79", "timestamp": 11447.97}
{"type": "machine_unavailable", "resources": "52", "timestamp": 9721.91}
{"type": "machine_available", "resources": "52", "timestamp": 11521.91}
{"type": "machine_unavailable", "resources": "85", "timestamp": 9764.36}
{"type": "machine_available", "resources": "85", "timestamp": 11564.36}
{"type": "machine_unavailable", "resources": "0", "timestamp": 9777.24}
{"type": "machine_available", "resources": "0", "timestamp": 11577.24}
{"type": "machine_unavailable", "resources": "11", "timestamp": 9826.42}
{"type": "machine_available", "resources": "11", "timestamp": 11626.42}
{"type": "machine_unavailable", "resources": "69", "timestamp": 9892.27}
{"type": "machine_available", "resources": "69", "timestamp": 11692.27}
{"type": "machine_unavailable", "resources": "67", "timestamp": 9922.94}
{"type": "machine_available", "resources": "67", "timestamp": 11722.94}
{"type": "machine_unavailable", "resources": "14", "timestamp": 9936.42}
{"type": "machine_available", "resources": "14", "timestamp": 11736.42}
{"type": "machine_unavailable", "resources": "18", "timestamp": 9952.85}
{"type": "machine_available", "resources": "18", "timestamp": 11752.85}
{"type": "machine_unavailable", "resources": "20", "timestamp": 9961.31}
{"type": "machine_available", "resources": "20", "timestamp": 11761.31}
{"type": "machine_unavailable", "resources": "48", "timestamp": 10102.66}
{"type": "machine_available", "resources": "48", "timestamp": 11902.66}
{"type": "machine_unavailable", "resources": "70", "timestamp": 10137.23}
{"type": "machine_available", "resources": "70", "timestamp": 11937.23}
{"type": "machine_unavailable", "resources": "60", "timestamp": 10147.59}
{"type": "machine_available", "resources": "60", "timestamp": 11947.59}
{"type": "machine_unavailable", "resources": "80", "timestamp": 10158.65}
{"type": "machine_available", "resources": "80", "timestamp": 11958.65}
{"type": "machine_unavailable", "resources": "4", "timestamp": 10178.33}
{"type": "machine_available", "resources": "4", "timestamp": 11978.33}
{"type": "machine_unavailable", "resources": "25", "timestamp": 10189.57}
{"type": "machine_available", "resources": "25", "timestamp": 11989.57}
{"type": "machine_unavailable", "resources": "27", "timestamp": 10195.69}
{"type": "machine_available", "resources": "27", "timestamp": 11995.69}
{"type": "machine_unavailable", "resources": "76", "timestamp": 10222.32}
{"type": "machine_available", "resources": "76", "timestamp": 12022.32}
{"type": "machine_unavailable", "resources": "37", "timestamp": 10260.22}
{"type": "machine_available", "resources": "37", "timestamp": 12060.22}
{"type": "machine_unavailable", "resources": "96", "timestamp": 10275.67}
{"type": "machine_available", "resources": "96", "timestamp": 12075.67}
{"type": "machine_unavailable", "resources": "71", "timestamp": 10358.78}
{"type": "machine_available", "resources": "71", "timestamp": 12158.78}
{"type": "machine_unavailable", "resources": "33", "timestamp": 10378.37}
{"type": "machine_available", "resources": "33", "timestamp": 12178.37}
{"type": "machine_unavailable", "resources": "51", "timestamp": 10398.26}
{"type": "machine_available", "resources": "51", "timestamp": 12198.26}
{"type": "machine_unavailable", "resources": "43", "timestamp": 10471.95}
{"type": "machine_available", "resources": "43", "timestamp": 12271.95}
{"type": "machine_unavailable", "resources": "98", "timestamp": 10504.34}
{"type": "machine_available", "resources": "98", "timestamp": 12304.34}
{"type": "machine_unavailable", "resources": "61", "timestamp": 10598.75}
{"type": "machine_available", "resources": "61", "timestamp": 12398.75}
{"type": "machine_unavailable", "resources": "6", "timestamp": 10658.29}
{"type": "machine_available", "resources": "6", "timestamp": 12458.29}
{"type": "machine_unavailable", "resources": "35", "timestamp": 10665.64}
{"type": "machine_available", "resources": "35", "timestamp": 12465.64}
{"type": "machine_unavailable", "resources": "84", "timestamp": 10712.13}
{"type": "machine_available", "resources": "84", "timestamp": 12512.13}
{"type": "machine_unavailable", "resources": "1", "timestamp": 10789.54}
{"type": "machine_available", "resources": "1", "timestamp": 12589.54}
{"type": "machine_unavailable", "resources": "47", "timestamp": 10851.7}
{"type": "machine_available", "resources": "47", "timestamp": 12651.7}
{"type": "machine_unavailable", "resources": "91", "timestamp": 10869.64}
{"type": "machine_available", "resources": "91", "timestamp": 12669.64}
{"type": "machine_unavailable", "resources": "53", "timestamp": 10886.06}
{"type": "machine_available", "resources": "53", "timestamp": 12686.06}
{"type": "machine_unavailable", "resources": "41", "timestamp": 10891.18}
{"type": "machine_available", "resources": "41", "timestamp": 12691.18}
{"type": "machine_unavailable", "resources": "16", "timestamp": 10895.87}
{"type": "machine_available", "resources": "16", "timestamp": 12695.87}
{"type": "machine_unavailable", "resources": "34", "timestamp": 10926.27}
{"type": "machine_available", "resources": "34", "timestamp": 12726.27}
{"type": "machine_unavailable", "resources": "19", "timestamp": 10948.04}
{"type": "machine_available", "resources": "19", "timestamp": 12748.04}
{"type": "machine_unavailable", "resources": "99", "timestamp": 10973.49}
{"type": "machine_available", "resources": "99", "timestamp": 12773.49}
{"type": "machine_unavailable", "resources": "88", "timestamp": 10996.01}
{"type": "machine_available", "resources": "88", "timestamp": 12796.01}
{"type": "machine_unavailable", "resources": "95", "timestamp": 11014.98}
{"type": "machine_available", "resources": "95", "timestamp": 12814.98}
{"type": "machine_unavailable", "resources": "64", "timestamp": 11041.48}
{"type": "machine_available", "resources": "64", "timestamp": 12841.48}
{"type": "machine_unavailable", "resources": "24", "timestamp": 11052.33}
{"type": "machine_available", "resources": "24", "timestamp": 12852.33}
{"type": "machine_unavailable", "resources": "87", "timestamp": 11068.52}
{"type": "machine_available", "resources": "87", "timestamp": 12868.52}
{"type": "machine_unavailable", "resources": "56", "timestamp": 11071.38}
{"type": "machine_available", "resources": "56", "timestamp": 12871.38}
{"type": "machine_unavailable", "resources": "9", "timestamp": 11078.39}
{"type": "machine_available", "resources": "9", "timestamp": 12878.39}
{"type": "machine_unavailable", "resources": "59", "timestamp": 11102.77}
{"type": "machine_available", "resources": "59", "timestamp": 12902.77}
{"type": "machine_unavailable", "resources": "46", "timestamp": 11135.77}
{"type": "machine_available", "resources": "46", "timestamp": 12935.77}
{"type": "machine_unavailable", "resources": "13", "timestamp": 11138.09}
{"type": "machine_available", "resources": "13", "timestamp": 12938.09}
{"type": "machine_unavailable", "resources": "86", "timestamp": 11171.14}
{"type": "machine_available", "resources": "86", "timestamp": 12971.14}
{"type": "machine_unavailable", "resources": "15", "timestamp": 11189.72}
{"type": "machine_available", "resources": "15", "timestamp": 12989.72}
{"type": "machine_unavailable", "resources": "92", "timestamp": 11221.55}
{"type": "machine_available", "resources": "92", "timestamp": 13021.55}
{"type": "machine_unavailable", "resources": "30", "timestamp": 11258.69}
{"type": "machine_available", "resources": "30", "timestamp": 13058.69}
{"type": "machine_unavailable", "resources": "58", "timestamp": 11269.11}
{"type": "machine_available", "resources": "58", "timestamp": 13069.11}
{"type": "machine_unavailable", "resources": "26", "timestamp": 11313.44}
{"type": "machine_available", "resources": "26", "timestamp": 13113.44}
{"type": "machine_unavailable", "resources": "81", "timestamp": 11382.98}
{"type": "machine_available", "resources": "81", "timestamp": 13182.98}
{"type": "machine_unavailable", "resources": "38", "timestamp": 11397.13}
{"type": "machine_available", "resources": "38", "timestamp": 13197.13}
{"type": "machine_unavailable", "resources": "50", "timestamp": 11489.56}
{"type": "machine_available", "resources": "50", "timestamp": 13289.56}
{"type": "machine_unavailable", "resources": "32", "timestamp": 11513.89}
{"type": "machine_available", "resources": "32", "timestamp": 13313.89}
{"type": "machine_unavailable", "resources": "93", "timestamp": 11520.16}
{"type": "machine_available", "resources": "93", "timestamp": 13320.16}
{"type": "machine_unavailable", "resources": "39", "timestamp": 11523.64}
{"type": "machine_available", "resources": "39", "timestamp": 13323.64}
{"type": "machine_unavailable", "resources": "72", "timestamp": 11610.67}
{"type": "machine_available", "resources": "72", "timestamp": 13410.67}
{"type": "machine_unavailable", "resources": "42", "timestamp": 11629.71}
{"type": "machine_available", "resources": "42", "timestamp": 13429.71}
{"type": "machine_unavailable", "resources": "11", "timestamp": 11647.47}
{"type": "machine_available", "resources": "11", "timestamp": 13447.47}
{"type": "machine_unavailable", "resources": "79", "timestamp": 11650.69}
{"type": "machine_available", "resources": "79", "timestamp": 13450.69}
{"type": "machine_unavailable", "resources": "22", "timestamp": 11653.66}
{"type": "machine_available", "resources": "22", "timestamp": 13453.66}
{"type": "machine_unavailable", "resources": "77", "timestamp": 11659.61}
{"type": "machine_available", "resources": "77", "timestamp": 13459.61}
{"type": "machine_unavailable", "resources": "12", "timestamp": 11696.13}
{"type": "machine_available", "resources": "12", "timestamp": 13496.13}
{"type": "machine_unavailable", "resources": "45", "timestamp": 11703.84}
{"type": "machine_available", "resources": "45", "timestamp": 13503.84}
{"type": "machine_unavailable", "resources": "54", "timestamp": 11779.84}
{"type": "machine_available", "resources": "54", "timestamp": 13579.84}
{"type": "machine_unavailable", "resources": "17", "timestamp": 11858.32}
{"type": "machine_available", "resources": "17", "timestamp": 13658.32}
{"type": "machine_unavailable", "resources": "18", "timestamp": 11889.58}
{"type": "machine_available", "resources": "18", "timestamp": 13689.58}
{"type": "machine_unavailable", "resources": "49", "timestamp": 11941.21}
{"type": "machine_available", "resources": "49", "timestamp": 13741.21}
{"type": "machine_unavailable", "resources": "52", "timestamp": 11960.99}
{"type": "machine_available", "resources": "52", "timestamp": 13760.99}
{"type": "machine_unavailable", "resources": "40", "timestamp": 11990.26}
{"type": "machine_available", "resources": "40", "timestamp": 13790.26}
{"type": "machine_unavailable", "resources": "31", "timestamp": 12110.7}
{"type": "machine_available", "resources": "31", "timestamp": 13910.7}
{"type": "machine_unavailable", "resources": "67", "timestamp": 12143.08}
{"type": "machine_available", "resources": "67", "timestamp": 13943.08}
{"type": "machine_unavailable", "resources": "44", "timestamp": 12143.64}
{"type": "machine_available", "resources": "44", "timestamp": 13943.64}
{"type": "machine_unavailable", "resources": "27", "timestamp": 12154.63}
{"type": "machine_available", "resources": "27", "timestamp": 13954.63}
{"type": "machine_unavailable", "resources": "37", "timestamp": 12175.99}
{"type": "machine_available", "resources": "37", "timestamp": 13975.99}
{"type": "machine_unavailable", "resources": "78", "timestamp": 12228.31}
{"type": "machine_available", "resources": "78", "timestamp": 14028.31}
{"type": "machine_unavailable", "resources": "68", "timestamp": 12265.8}
{"type": "machine_available", "resources": "68", "timestamp": 14065.8}
{"type": "machine_unavailable", "resources": "70", "timestamp": 12335.79}
{"type": "machine_available", "resources": "70", "timestamp": 14135.79}
{"type": "machine_unavailable", "resources": "66", "timestamp": 12343.78}
{"type": "machine_available", "resources": "66", "timestamp": 14143.78}
{"type": "machine_unavailable", "resources": "25", "timestamp": 12348.37}
{"type": "machine_available", "resources": "25", "timestamp": 14148.37}
{"type": "machine_unavailable", "resources": "90", "timestamp": 12478.15}
{"type": "machine_available", "resources": "90", "timestamp": 14278.15}
{"type": "machine_unavailable", "resources": "3", "timestamp": 12532.3}
{"type": "machine_available", "resources": "3", "timestamp": 14332.3}
{"type": "machine_unavailable", "resources": "10", "timestamp": 12561.89}
{"type": "machine_available", "resources": "10", "timestamp": 14361.89}
{"type": "machine_unavailable", "resources": "61", "timestamp": 12566.29}
{"type": "machine_available", "resources": "61", "timestamp": 14366.29}
{"type": "machine_unavailable", "resources": "89", "timestamp": 12592.07}
{"type": "machine_available", "resources": "89", "timestamp": 14392.07}
{"type": "machine_unavailable", "resources": "60", "timestamp": 12604.24}
{"type": "machine_available", "resources": "60", "timestamp": 14404.24}
{"type": "machine_unavailable", "resources": "73", "timestamp": 12713.25}
{"type": "machine_available", "resources": "73", "timestamp": 14513.25}
{"type": "machine_unavailable", "resources": "71", "timestamp": 12736.77}
{"type": "machine_available", "resources": "71", "timestamp": 14536.77}
{"type": "machine_unavailable", "resources": "33", "timestamp": 12738.74}
{"type": "machine_available", "resources": "33", "timestamp": 14538.74}
{"type": "machine_unavailable", "resources": "0", "timestamp": 12744.28}
{"type": "machine_available", "resources": "0", "timestamp": 14544.28}
{"type": "machine_unavailable", "resources": "98", "timestamp": 12754.49}
{"type": "machine_available", "resources": "98", "timestamp": 14554.49}
{"type": "machine_unavailable", "resources": "21", "timestamp": 12780.06}
{"type": "machine_available", "resources": "21", "timestamp": 14580.06}
{"type": "machine_unavailable", "resources": "4", "timestamp": 12786.22}
{"type": "machine_available", "resources": "4", "timestamp": 14586.22}
{"type": "machine_unavailable", "resources": "84", "timestamp": 12801.71}
{"type": "machine_available", "resources": "84", "timestamp": 14601.71}
{"type": "machine_unavailable", "resources": "96", "timestamp": 12806.17}
{"type": "machine_available", "resources": "96", "timestamp": 14606.17}
{"type": "machine_unavailable", "resources": "94", "timestamp": 12839.54}
{"type": "machine_available", "resources": "94", "timestamp": 14639.54}
{"type": "machine_unavailable", "resources": "75", "timestamp": 12910.62}
{"type": "machine_available", "resources": "75", "timestamp": 14710.62}
{"type": "machine_unavailable", "resources": "97", "timestamp": 12941.3}
{"type": "machine_available", "resources": "97", "timestamp": 14741.3}
{"type": "machine_unavailable", "resources": "19", "timestamp": 12941.79}
{"type": "machine_available", "resources": "19", "timestamp": 14741.79}
{"type": "machine_unavailable", "resources": "51", "timestamp": 12964.3}
{"type": "machine_available", "resources": "51", "timestamp": 14764.3}
{"type": "machine_unavailable", "resources": "16", "timestamp": 12970.02}
{"type": "machine_available", "resources": "16", "timestamp": 14770.02}
{"type": "machine_unavailable", "resources": "6", "timestamp": 12979.2}
{"type": "machine_available", "resources": "6", "timestamp": 14779.2}
{"type": "machine_unavailable", "resources": "85", "timestamp": 13009.99}
{"type": "machine_available", "resources": "85", "timestamp": 14809.99}
{"type": "machine_unavailable", "resources": "63", "timestamp": 13056.46}
{"type": "machine_available", "resources": "63", "timestamp": 14856.46}
{"type": "machine_unavailable", "resources": "53", "timestamp": 13083.96}
{"type": "machine_available", "resources": "53", "timestamp": 14883.96}
{"type": "machine_unavailable", "resources": "88", "timestamp": 13152.06}
{"type": "machine_available", "resources": "88", "timestamp": 14952.06}
{"type": "machine_unavailable", "resources": "36", "timestamp": 13177.02}
{"type": "machine_available", "resources": "36", "timestamp": 14977.02}
{"type": "machine_unavailable", "resources": "59", "timestamp": 13196.97}
{"type": "machine_available", "resources": "59", "timestamp": 14996.97}
{"type": "machine_unavailable", "resources": "56", "timestamp": 13251.62}
{"type": "machine_available", "resources": "56", "timestamp": 15051.62}
{"type": "machine_unavailable", "resources": "14", "timestamp": 13255.37}
{"type": "machine_available", "resources": "14", "timestamp": 15055.37}
{"type": "machine_unavailable", "resources": "43", "timestamp": 13326.06}
{"type": "machine_available", "resources": "43", "timestamp": 15126.06}
{"type": "machine_unavailable", "resources": "92", "timestamp": 13397.4}
{"type": "machine_available", "resources": "92", "timestamp": 15197.4}
{"type": "machine_unavailable", "resources": "55", "timestamp": 13426.13}
{"type": "machine_available", "resources": "55", "timestamp": 15226.13}
{"type": "machine_unavailable", "resources": "76", "timestamp": 13465.63}
{"type": "machine_available", "resources": "76", "timestamp": 15265.63}
{"type": "machine_unavailable", "resources": "39", "timestamp": 13477.28}
{"type": "machine_available", "resources": "39", "timestamp": 15277.28}
{"type": "machine_unavailable", "resources": "8", "timestamp": 13541.54}
{"type": "machine_available", "resources": "8", "timestamp": 15341.54}
{"type": "machine_unavailable", "resources": "57", "timestamp": 13549.95}
{"type": "machine_available", "resources": "57", "timestamp": 15349.95}
{"type": "machine_unavailable", "resources": "50", "timestamp": 13558.28}
{"type": "machine_available", "resources": "50", "timestamp": 15358.28}
{"type": "machine_unavailable", "resources": "13", "timestamp": 13666.14}
{"type": "machine_available", "resources": "13", "timestamp": 15466.14}
{"type": "machine_unavailable", "resources": "30", "timestamp": 13688.55}
{"type": "machine_available", "resources": "30", "timestamp": 15488.55}
{"type": "machine_unavailable", "resources": "22", "timestamp": 13712.17}
{"type": "machine_available", "resources": "22", "timestamp": 15512.17}
{"type": "machine_unavailable", "resources": "95", "timestamp": 13719.69}
{"type": "machine_available", "resources": "95", "timestamp": 15519.69}
{"type": "machine_unavailable", "resources": "15", "timestamp": 13736.11}
{"type": "machine_available", "resources": "15", "timestamp": 15536.11}
{"type": "machine_unavailable", "resources": "12", "timestamp": 13806.23}
{"type": "machine_available", "resources": "12", "timestamp": 15606.23}
{"type": "machine_unavailable", "resources": "69", "timestamp": 13828.23}
{"type": "machine_available", "resources": "69", "timestamp": 15628.23}
{"type": "machine_unavailable", "resources": "58", "timestamp": 13853.96}
{"type": "machine_available", "resources": "58", "timestamp": 15653.96}
{"type": "machine_unavailable", "resources": "93", "timestamp": 13853.98}
{"type": "machine_available", "resources": "93", "timestamp": 15653.98}
{"type": "machine_unavailable", "resources": "41", "timestamp": 13864.65}
{"type": "machine_available", "resources": "41", "timestamp": 15664.65}
{"type": "machine_unavailable", "resources": "18", "timestamp": 13870.31}
{"type": "machine_available", "resources": "18", "timestamp": 15670.31}
{"type": "machine_unavailable", "resources": "74", "timestamp": 13883.53}
{"type": "machine_available", "resources": "74", "timestamp": 15683.53}
{"type": "machine_unavailable", "resources": "40", "timestamp": 13891.4}
{"type": "machine_available", "resources": "40", "timestamp": 15691.4}
{"type": "machine_unavailable", "resources": "99", "timestamp": 13903.16}
{"type": "machine_available", "resources": "99", "timestamp": 15703.16}
{"type": "machine_unavailable", "resources": "26", "timestamp": 14016.69}
{"type": "machine_available", "resources": "26", "timestamp": 15816.69}
{"type": "machine_unavailable", "resources": "7", "timestamp": 14023.49}
{"type": "machine_available", "resources": "7", "timestamp": 15823.49}
{"type": "machine_unavailable", "resources": "45", "timestamp": 14030.02}
{"type": "machine_available", "resources": "45", "timestamp": 15830.02}
{"type": "machine_unavailable", "resources": "2", "timestamp": 14098.9}
{"type": "machine_available", "resources": "2", "timestamp": 15898.9}
{"type": "machine_unavailable", "resources": "83", "timestamp": 14104.56}
{"type": "machine_available", "resources": "83", "timestamp": 15904.56}
{"type": "machine_unavailable", "resources": "42", "timestamp": 14112.64}
{"type": "machine_available", "resources": "42", "timestamp": 15912.64}
{"type": "machine_unavailable", "resources": "35", "timestamp": 14210.24}
{"type": "machine_available", "resources": "35", "timestamp": 16010.24}
{"type": "machine_unavailable", "resources": "91", "timestamp": 14271.35}
{"type": "machine_available", "resources": "91", "timestamp": 16071.35}
{"type": "machine_unavailable", "resources": "28", "timestamp": 14334.71}
{"type": "machine_available", "resources": "28", "timestamp": 16134.71}
{"type": "machine_unavailable", "resources": "65", "timestamp": 14344.11}
{"type": "machine_available", "resources": "65", "timestamp": 16144.11}
{"type": "machine_unavailable", "resources": "34", "timestamp": 14376.88}
{"type": "machine_available", "resources": "34", "timestamp": 16176.88}
{"type": "machine_unavailable", "resources": "67", "timestamp": 14390.86}
{"type": "machine_available", "resources": "67", "timestamp": 16190.86}
{"type": "machine_unavailable", "resources": "66", "timestamp": 14455.6}
{"type": "machine_available", "resources": "66", "timestamp": 16255.6}
{"type": "machine_unavailable", "resources": "38", "timestamp": 14463.4}
{"type": "machine_available", "resources": "38", "timestamp": 16263.4}
{"type": "machine_unavailable", "resources": "23", "timestamp": 14531.15}
{"type": "machine_available", "resources": "23", "timestamp": 16331.15}
{"type": "machine_unavailable", "resources": "82", "timestamp": 14564.14}
{"type": "machine_available", "resources": "82", "timestamp": 16364.14}
{"type": "machine_unavailable", "resources": "9", "timestamp": 14597.2}
{"type": "machine_available", "resources": "9", "timestamp": 16397.2}
{"type": "machine_unavailable", "resources": "68", "timestamp": 14614.61}
{"type": "machine_available", "resources": "68", "timestamp": 16414.61}
{"type": "machine_unavailable", "resources": "0", "timestamp": 14685.99}
{"type": "machine_available", "resources": "0", "timestamp": 16485.99}
{"type": "machine_unavailable", "resources": "32", "timestamp": 14713.46}
{"type": "machine_available", "resources": "32", "timestamp": 16513.46}
{"type": "machine_unavailable", "resources": "72", "timestamp": 14729.98}
{"type": "machine_available", "resources": "72", "timestamp": 16529.98}
{"type": "machine_unavailable", "resources": "96", "timestamp": 14732.72}
{"type": "machine_available", "resources": "96", "timestamp": 16532.72}
{"type": "machine_unavailable", "resources": "94", "timestamp": 14739.02}
{"type": "machine_available", "resources": "94", "timestamp": 16539.02}
{"type": "machine_unavailable", "resources": "19", "timestamp": 14762.85}
{"type": "machine_available", "resources": "19", "timestamp": 16562.85}
{"type": "machine_unavailable", "resources": "4", "timestamp": 14894.88}
{"type": "machine_available", "resources": "4", "timestamp": 16694.88}
{"type": "machine_unavailable", "resources": "49", "timestamp": 14924.06}
{"type": "machine_available", "resources": "49", "timestamp": 16724.06}
{"type": "machine_unavailable", "resources": "63", "timestamp": 14924.14}
{"type": "machine_available", "resources": "63", "timestamp": 16724.14}
{"type": "machine_unavailable", "resources": "71", "timestamp": 14926.0}
{"type": "machine_available", "resources": "71", "timestamp": 16726.0}
{"type": "machine_unavailable", "resources": "46", "timestamp": 14970.99}
{"type": "machine_available", "resources": "46", "timestamp": 16770.99}
{"type": "machine_unavailable", "resources": "61", "timestamp": 14982.6}
{"type": "machine_available", "resources": "61", "timestamp": 16782.6}
{"type": "machine_unavailable", "resources": "37", "timestamp": 15028.44}
{"type": "machine_available", "resources": "37", "timestamp": 16828.44}
{"type": "machine_unavailable", "resources": "81", "timestamp": 15049.57}
{"type": "machine_available", "resources": "81", "timestamp": 16849.57}
{"type": "machine_unavailable", "resources": "78", "timestamp": 15084.16}
{"type": "machine_available", "resources": "78", "timestamp": 16884.16}
{"type": "machine_unavailable", "resources": "21", "timestamp": 15129.54}
{"type": "machine_available", "resources": "21", "timestamp": 16929.54}
{"type": "machine_unavailable", "resources": "86", "timestamp": 15133.11}
{"type": "machine_available", "resources": "86", "timestamp": 16933.11}
{"type": "machine_unavailable", "resources": "98", "timestamp": 15150.53}
{"type": "machine_available", "resources": "98", "timestamp": 16950.53}
{"type": "machine_unavailable", "resources": "64", "timestamp": 15159.41}
{"type": "machine_available", "resources": "64", "timestamp": 16959.41}
{"type": "machine_unavailable", "resources": "77", "timestamp": 15182.98}
{"type": "machine_available", "resources": "77", "timestamp": 16982.98}
{"type": "machine_unavailable", "resources": "25", "timestamp": 15203.71}
{"type": "machine_available", "resources": "25", "timestamp": 17003.71}
{"type": "machine_unavailable", "resources": "6", "timestamp": 15230.96}
{"type": "machine_available", "resources": "6", "timestamp": 17030.96}
{"type": "machine_unavailable", "resources": "79", "timestamp": 15256.46}
{"type": "machine_available", "resources": "79", "timestamp": 17056.46}
{"type": "machine_unavailable", "resources": "55", "timestamp": 15257.0}
{"type": "machine_available", "resources": "55", "timestamp": 17057.0}
{"type": "machine_unavailable", "resources": "92", "timestamp": 15278.02}
{"type": "machine_available", "resources": "92", "timestamp": 17078.02}
{"type": "machine_unavailable", "resources": "3", "timestamp": 15287.17}
{"type": "machine_available", "resources": "3", "timestamp": 17087.17}
{"type": "machine_unavailable", "resources": "76", "timestamp": 15289.43}
{"type": "machine_available", "resources": "76", "timestamp": 17089.43}
{"type": "machine_unavailable", "resources": "5", "timestamp": 15336.48}
{"type": "machine_available", "resources": "5", "timestamp": 17136.48}
{"type": "machine_unavailable", "resources": "33", "timestamp": 15372.17}
{"type": "machine_available", "resources": "33", "timestamp": 17172.17}
{"type": "machine_unavailable", "resources": "11", "timestamp": 15415.65}
{"type": "machine_available", "resources": "11", "timestamp": 17215.65}
{"type": "machine_unavailable", "resources": "20", "timestamp": 15447.15}
{"type": "machine_available", "resources": "20", "timestamp": 17247.15}
{"type": "machine_unavailable", "resources": "84", "timestamp": 15467.76}
{"type": "machine_available", "resources": "84", "timestamp": 17267.76}
{"type": "machine_unavailable", "resources": "54", "timestamp": 15521.08}
{"type": "machine_available", "resources": "54", "timestamp": 17321.08}
{"type": "machine_unavailable", "resources": "89", "timestamp": 15539.95}
{"type": "machine_available", "resources": "89", "timestamp": 17339.95}
{"type": "machine_unavailable", "resources": "16", "timestamp": 15547.26}
{"type": "machine_available", "resources": "16", "timestamp": 17347.26}
{"type": "machine_unavailable", "resources": "97", "timestamp": 15567.43}
{"type": "machine_available", "resources": "97", "timestamp": 17367.43}
{"type": "machine_unavailable", "resources": "17", "timestamp": 15594.97}
{"type": "machine_available", "resources": "17", "timestamp": 17394.97}
{"type": "machine_unavailable", "resources": "13", "timestamp": 15599.65}
{"type": "machine_available", "resources": "13", "timestamp": 17399.65}
{"type": "machine_unavailable", "resources": "60", "timestamp": 15614.62}
{"type": "machine_available", "resources": "60", "timestamp": 17414.62}
{"type": "machine_unavailable", "resources": "88", "timestamp": 15631.19}
{"type": "machine_available", "resources": "88", "timestamp": 17431.19}
{"type": "machine_unavailable", "resources": "93", "timestamp": 15797.77}
{"type": "machine_available", "resources": "93", "timestamp": 17597.77}
{"type": "machine_unavailable", "resources": "15", "timestamp": 15826.21}
{"type": "machine_available", "resources": "15", "timestamp": 17626.21}
{"type": "machine_unavailable", "resources": "30", "timestamp": 15850.29}
{"type": "machine_available", "resources": "30", "timestamp": 17650.29}
{"type": "machine_unavailable", "resources": "29", "timestamp": 15866.55}
{"type": "machine_available", "resources": "29", "timestamp": 17666.55}
{"type": "machine_unavailable", "resources": "43", "timestamp": 15880.13}
{"type": "machine_available", "resources": "43", "timestamp": 17680.13}
{"type": "machine_unavailable", "resources": "27", "timestamp": 15967.92}
{"type": "machine_available", "resources": "27", "timestamp": 17767.92}
{"type": "machine_unavailable", "resources": "51", "timestamp": 15969.13}
{"type": "machine_available", "resources": "51", "timestamp": 17769.13}
{"type": "machine_unavailable", "resources": "7", "timestamp": 15995.53}
{"type": "machine_available", "resources": "7", "timestamp": 17795.53}
{"type": "machine_unavailable", "resources": "75", "timestamp": 16035.65}
{"type": "machine_available", "resources": "75", "timestamp": 17835.65}
{"type": "machine_unavailable", "resources": "22", "timestamp": 16112.93}
{"type": "machine_available", "resources": "22", "timestamp": 17912.93}
{"type": "machine_unavailable", "resources": "50", "timestamp": 16131.56}
{"type": "machine_available", "resources": "50", "timestamp": 17931.56}
{"type": "machine_unavailable", "resources": "48", "timestamp": 16213.76}
{"type": "machine_available", "resources": "48", "timestamp": 18013.76}
{"type": "machine_unavailable", "resources": "45", "timestamp": 16228.04}
{"type": "machine_available", "resources": "45", "timestamp": 18028.04}
{"type": "machine_unavailable", "resources": "70", "timestamp": 16236.53}
{"type": "machine_available", "resources": "70", "timestamp": 18036.53}
{"type": "machine_unavailable", "resources": "26", "timestamp": 16285.44}
{"type": "machine_available", "resources": "26", "timestamp": 18085.44}
{"type": "machine_unavailable", "resources": "59", "timestamp": 16300.78}
{"type": "machine_available", "resources": "59", "timestamp": 18100.78}
{"type": "machine_unavailable", "resources": "57", "timestamp": 16343.54}
{"type": "machine_available", "resources": "57", "timestamp": 18143.54}
{"type": "machine_unavailable", "resources": "80", "timestamp": 16363.75}
{"type": "machine_available", "resources": "80", "timestamp": 18163.75}
{"type": "machine_unavailable", "resources": "62", "timestamp": 16397.86}
{"type": "machine_available", "resources": "62", "timestamp": 18197.86}
{"type": "machine_unavailable", "resources": "53", "timestamp": 16404.73}
{"type": "machine_available", "resources": "53", "timestamp": 18204.73}
{"type": "machine_unavailable", "resources": "35", "timestamp": 16407.0}
{"type": "machine_available", "resources": "35", "timestamp": 18207.0}
{"type": "machine_unavailable", "resources": "2", "timestamp": 16420.52}
{"type": "machine_available", "resources": "2", "timestamp": 18220.52}
{"type": "machine_unavailable", "resources": "66", "timestamp": 16442.47}
{"type": "machine_available", "resources": "66", "timestamp": 18242.47}
{"type": "machine_unavailable", "resources": "83", "timestamp": 16457.44}
{"type": "machine_available", "resources": "83", "timestamp": 18257.44}
{"type": "machine_unavailable", "resources": "34", "timestamp": 16495.12}
{"type": "machine_available", "resources": "34", "timestamp": 18295.12}
{"type": "machine_unavailable", "resources": "47", "timestamp": 16498.39}
{"type": "machine_available", "resources": "47", "timestamp": 18298.39}
{"type": "machine_unavailable", "resources": "52", "timestamp": 16502.81}
{"type": "machine_available", "resources": "52", "timestamp": 18302.81}
{"type": "machine_unavailable", "resources": "41", "timestamp": 16520.74}
{"type": "machine_available", "resources": "41", "timestamp": 18320.74}
{"type": "machine_unavailable", "resources": "85", "timestamp": 16529.62}
{"type": "machine_available", "resources": "85", "timestamp": 18329.62}
{"type": "machine_unavailable", "resources": "32", "timestamp": 16531.31}
{"type": "machine_available", "resources": "32", "timestamp": 18331.31}
{"type": "machine_unavailable", "resources": "90", "timestamp": 16542.54}
{"type": "machine_available", "resources": "90", "timestamp": 18342.54}
{"type": "machine_unavailable", "resources": "95", "timestamp": 16546.93}
{"type": "machine_available", "resources": "95", "timestamp": 18346.93}
{"type": "machine_unavailable", "resources": "18", "timestamp": 16564.96}
{"type": "machine_available", "resources": "18", "timestamp": 18364.96}
{"type": "machine_unavailable", "resources": "68", "timestamp": 16628.6}
{"type": "machine_available", "resources": "68", "timestamp": 18428.6}
{"type": "machine_unavailable", "resources": "40", "timestamp": 16666.02}
{"type": "machine_available", "resources": "40", "timestamp": 18466.02}
{"type": "machine_unavailable", "resources": "99", "timestamp": 16679.9}
{"type": "machine_available", "resources": "99", "timestamp": 18479.9}
{"type": "machine_unavailable", "resources": "72", "timestamp": 16709.76}
{"type": "machine_available", "resources": "72", "timestamp": 18509.76}
{"type": "machine_unavailable", "resources": "38", "timestamp": 16710.1}
{"type": "machine_available", "resources": "38", "timestamp": 18510.1}
{"type": "machine_unavailable", "resources": "8", "timestamp": 16742.5}
{"type": "machine_available", "resources": "8", "timestamp": 18542.5}
{"type": "machine_unavailable", "resources": "71", "timestamp": 16817.93}
{"type": "machine_available", "resources": "71", "timestamp": 18617.93}
{"type": "machine_unavailable", "resources": "31", "timestamp": 16852.99}
{"type": "machine_available", "resources": "31", "timestamp": 18652.99}
{"type": "machine_unavailable", "resources": "67", "timestamp": 16898.87}
{"type": "machine_available", "resources": "67", "timestamp": 18698.87}
{"type": "machine_unavailable", "resources": "49", "timestamp": 16900.73}
{"type": "machine_available", "resources": "49", "timestamp": 18700.73}
{"type": "machine_unavailable", "resources": "36", "timestamp": 16980.8}
{"type": "machine_available", "resources": "36", "timestamp": 18780.8}
{"type": "machine_unavailable", "resources": "28", "timestamp": 17001.42}
{"type": "machine_available", "resources": "28", "timestamp": 18801.42}
{"type": "machine_unavailable", "resources": "25", "timestamp": 17006.6}
{"type": "machine_available", "resources": "25", "timestamp": 18806.6}
{"type": "machine_unavailable", "resources": "21", "timestamp": 17025.94}
{"type": "machine_available", "resources": "21", "timestamp": 18825.94}
{"type": "machine_unavailable", "resources": "91", "timestamp": 17038.9}
{"type": "machine_available", "resources": "91", "timestamp": 18838.9}
{"type": "machine_unavailable", "resources": "19", "timestamp": 17047.13}
{"type": "machine_available", "resources": "19", "timestamp": 18847.13}
{"type": "machine_unavailable", "resources": "39", "timestamp": 17066.65}
{"type": "machine_available", "resources": "39", "timestamp": 18866.65}
{"type": "machine_unavailable", "resources": "55", "timestamp": 17102.79}
{"type": "machine_available", "resources": "55", "timestamp": 18902.79}
{"type": "machine_unavailable", "resources": "63", "timestamp": 17112.31}
{"type": "machine_available", "resources": "63", "timestamp": 18912.31}
{"type": "machine_unavailable", "resources": "9", "timestamp": 17168.59}
{"type": "machine_available", "resources": "9", "timestamp": 18968.59}
{"type": "machine_unavailable", "resources": "44", "timestamp": 17169.3}
{"type": "machine_available", "resources": "44", "timestamp": 18969.3}
{"type": "machine_unavailable", "resources": "33", "timestamp": 17181.03}
{"type": "machine_available", "resources": "33", "timestamp": 18981.03}
{"type": "machine_unavailable", "resources": "23", "timestamp": 17231.68}
{"type": "machine_available", "resources": "23", "timestamp": 19031.68}
{"type": "machine_unavailable", "resources": "78", "timestamp": 17262.52}
{"type": "machine_available", "resources": "78", "timestamp": 19062.52}
{"type": "machine_unavailable", "resources": "46", "timestamp": 17275.05}
{"type": "machine_available", "resources": "46", "timestamp": 19075.05}
{"type": "machine_unavailable", "resources": "82", "timestamp": 17276.0}
{"type": "machine_available", "resources": "82", "timestamp": 19076.0}
{"type": "machine_unavailable", "resources": "69", "timestamp": 17277.47}
{"type": "machine_available", "resources": "69", "timestamp": 19077.47}
{"type": "machine_unavailable", "resources": "4", "timestamp": 17293.35}
{"type": "machine_available", "resources": "4", "timestamp": 19093.35}
{"type": "machine_unavailable", "resources": "87", "timestamp": 17342.21}
{"type": "machine_available", "resources": "87", "timestamp": 19142.21}
{"type": "machine_unavailable", "resources": "61", "timestamp": 17363.43}
{"type": "machine_available", "resources": "61", "timestamp": 19163.43}
{"type": "machine_unavailable", "resources": "77", "timestamp": 17476.57}
{"type": "machine_available", "resources": "77", "timestamp": 19276.57}
{"type": "machine_unavailable", "resources": "88", "timestamp": 17482.98}
{"type": "machine_available", "resources": "88", "timestamp": 19282.98}
{"type": "machine_unavailable", "resources": "0", "timestamp": 17490.44}
{"type": "machine_available", "resources": "0", "timestamp": 19290.44}
{"type": "machine_unavailable", "resources": "65", "timestamp": 17568.74}
{"type": "machine_available", "resources": "65", "timestamp": 19368.74}
{"type": "machine_unavailable", "resources": "97", "timestamp": 17625.45}
{"type": "machine_available", "resources": "97", "timestamp": 19425.45}
{"type": "machine_unavailable", "resources": "79", "timestamp": 17649.28}
{"type": "machine_available", "resources": "79", "timestamp": 19449.28}
{"type": "machine_unavailable", "resources": "42", "timestamp": 17701.31}
{"type": "machine_available", "resources": "42", "timestamp": 19501.31}
{"type": "machine_unavailable", "resources": "13", "timestamp": 17710.51}
{"type": "machine_available", "resources": "13", "timestamp": 19510.51}
{"type": "machine_unavailable", "resources": "51", "timestamp": 17775.74}
{"type": "machine_available", "resources": "51", "timestamp": 19575.74}
{"type": "machine_unavailable", "resources": "24", "timestamp": 17810.54}
{"type": "machine_available", "resources": "24", "timestamp": 19610.54}
{"type": "machine_unavailable", "resources": "20", "timestamp": 17862.72}
{"type": "machine_available", "resources": "20", "timestamp": 19662.72}
{"type": "machine_unavailable", "resources": "73", "timestamp": 17874.87}
{"type": "machine_available", "resources": "73", "timestamp": 19674.87}
{"type": "machine_unavailable", "resources": "30", "timestamp": 17885.3}
{"type": "machine_available", "resources": "30", "timestamp": 19685.3}
{"type": "machine_unavailable", "resources": "22", "timestamp": 17916.48}
{"type": "machine_available", "resources": "22", "timestamp": 19716.48}
{"type": "machine_unavailable", "resources": "94", "timestamp": 17991.31}
{"type": "machine_available", "resources": "94", "timestamp": 19791.31}
{"type": "machine_unavailable", "resources": "14", "timestamp": 17995.35}
{"type": "machine_available", "resources": "14", "timestamp": 19795.35}
{"type": "machine_unavailable", "resources": "58", "timestamp": 18060.4}
{"type": "machine_available", "resources": "58", "timestamp": 19860.4}
{"type": "machine_unavailable", "resources": "86", "timestamp": 18081.95}
{"type": "machine_available", "resources": "86", "timestamp": 19881.95}
{"type": "machine_unavailable", "resources": "6", "timestamp": 18101.61}
{"type": "machine_available", "resources": "6", "timestamp": 19901.61}
{"type": "machine_unavailable", "resources": "50", "timestamp": 18114.29}
{"type": "machine_available", "resources": "50", "timestamp": 19914.29}
{"type": "machine_unavailable", "resources": "93", "timestamp": 18135.53}
{"type": "machine_available", "resources": "93", "timestamp": 19935.53}
{"type": "machine_unavailable", "resources": "27", "timestamp": 18165.75}
{"type": "machine_available", "resources": "27", "timestamp": 19965.75}
{"type": "machine_unavailable", "resources": "16", "timestamp": 18221.24}
{"type": "machine_available", "resources": "16", "timestamp": 20021.24}
{"type": "machine_unavailable", "resources": "53", "timestamp": 18246.38}
{"type": "machine_available", "resources": "53", "timestamp": 20046.38}
{"type": "machine_unavailable", "resources": "92", "timestamp": 18277.13}
{"type": "machine_available", "resources": "92", "timestamp": 20077.13}
{"type": "machine_unavailable", "resources": "83", "timestamp": 18287.49}
{"type": "machine_available", "resources": "83", "timestamp": 20087.49}
{"type": "machine_unavailable", "resources": "1", "timestamp": 18293.61}
{"type": "machine_available", "resources": "1", "timestamp": 20093.61}
{"type": "machine_unavailable", "resources": "17", "timestamp": 18312.76}
{"type": "machine_available", "resources": "17", "timestamp": 20112.76}
{"type": "machine_unavailable", "resources": "34", "timestamp": 18322.12}
{"type": "machine_available", "resources": "34", "timestamp": 20122.12}
{"type": "machine_unavailable", "resources": "80", "timestamp": 18338.43}
{"type": "machine_available", "resources": "80", "timestamp": 20138.43}
{"type": "machine_unavailable", "resources": "95", "timestamp": 18371.31}
{"type": "machine_available", "resources": "95", "timestamp": 20171.31}
{"type": "machine_unavailable", "resources": "5", "timestamp": 18549.24}
{"type": "machine_available", "resources": "5", "timestamp": 20349.24}
{"type": "machine_unavailable", "resources": "45", "timestamp": 18555.7}
{"type": "machine_available", "resources": "45", "timestamp": 20355.7}
{"type": "machine_unavailable", "resources": "15", "timestamp": 18595.12}
{"type": "machine_available", "resources": "15", "timestamp": 20395.12}
{"type": "machine_unavailable", "resources": "3", "timestamp": 18610.67}
{"type": "machine_available", "resources": "3", "timestamp": 20410.67}
{"type": "machine_unavailable", "resources": "48", "timestamp": 18664.32}
{"type": "machine_available", "resources": "48", "timestamp": 20464.32}
{"type": "machine_unavailable", "resources": "56", "timestamp": 18666.41}
{"type": "machine_available", "resources": "56", "timestamp": 20466.41}
{"type": "machine_unavailable", "resources": "52", "timestamp": 18714.76}
{"type": "machine_available", "resources": "52", "timestamp": 20514.76}
{"type": "machine_unavailable", "resources": "18", "timestamp": 18753.15}
{"type": "machine_available", "resources": "18", "timestamp": 20553.15}
{"type": "machine_unavailable", "resources": "49", "timestamp": 18872.01}
{"type": "machine_available", "resources": "49", "timestamp": 20672.01}
{"type": "machine_unavailable", "resources": "36", "timestamp": 18905.72}
{"type": "machine_available", "resources": "36", "timestamp": 20705.72}
{"type": "machine_unavailable", "resources": "74", "timestamp": 18954.03}
{"type": "machine_available", "resources": "74", "timestamp": 20754.03}
{"type": "machine_unavailable", "resources": "32", "timestamp": 19035.37}
{"type": "machine_available", "resources": "32", "timestamp": 20835.37}
{"type": "machine_unavailable", "resources": "55", "timestamp": 19099.11}
{"type": "machine_available", "resources": "55", "timestamp": 20899.11}
{"type": "machine_unavailable", "resources": "41", "timestamp": 19102.96}
{"type": "machine_available", "resources": "41", "timestamp": 20902.96}
{"type": "machine_unavailable", "resources": "72", "timestamp": 19167.7}
{"type": "machine_available", "resources": "72", "timestamp": 20967.7}
{"type": "machine_unavailable", "resources": "35", "timestamp": 19192.94}
{"type": "machine_available", "resources": "35", "timestamp": 20992.94}
{"type": "machine_unavailable", "resources": "29", "timestamp": 19222.39}
{"type": "machine_available", "resources": "29", "timestamp": 21022.39}
{"type": "machine_unavailable", "resources": "25", "timestamp": 19224.92}
{"type": "machine_available", "resources": "25", "timestamp": 21024.92}
{"type": "machine_unavailable", "resources": "33", "timestamp": 19238.58}
{"type": "machine_available", "resources": "33", "timestamp": 21038.58}
{"type": "machine_unavailable", "resources": "19", "timestamp": 19263.14}
{"type": "machine_available", "resources": "19", "timestamp": 21063.14}
{"type": "machine_unavailable", "resources": "39", "timestamp": 19265.14}
{"type": "machine_available", "resources": "39", "timestamp": 21065.14}
{"type": "machine_unavailable", "resources": "0", "timestamp": 19298.42}
{"type": "machine_available", "resources": "0", "timestamp": 21098.42}
{"type": "machine_unavailable", "resources": "61", "timestamp": 19304.47}
{"type": "machine_available", "resources": "61", "timestamp": 21104.47}
{"type": "machine_unavailable", "resources": "62", "timestamp": 19308.99}
{"type": "machine_available", "resources": "62", "timestamp": 21108.99}
{"type": "machine_unavailable", "resources": "44", "timestamp": 19309.97}
{"type": "machine_available", "resources": "44", "timestamp": 21109.97}
{"type": "machine_unavailable", "resources": "71", "timestamp": 19359.32}
{"type": "machine_available", "resources": "71", "timestamp": 21159.32}
{"type": "machine_unavailable", "resources": "70", "timestamp": 19361.1}
{"type": "machine_available", "resources": "70", "timestamp": 21161.1}
{"type": "machine_unavailable", "resources": "40", "timestamp": 19389.87}
{"type": "machine_available", "resources": "40", "timestamp": 21189.87}
{"type": "machine_unavailable", "resources": "23", "timestamp": 19449.85}
{"type": "machine_available", "resources": "23", "timestamp": 21249.85}
{"type": "machine_unavailable", "resources": "21", "timestamp": 19508.25}
{"type": "machine_available", "resources": "21", "timestamp": 21308.25}
{"type": "machine_unavailable", "resources": "9", "timestamp": 19531.48}
{"type": "machine_available", "resources": "9", "timestamp": 21331.48}
{"type": "machine_unavailable", "resources": "96", "timestamp": 19540.96}
{"type": "machine_available", "resources": "96", "timestamp": 21340.96}
{"type": "machine_unavailable", "resources": "8", "timestamp": 19565.3}
{"type": "machine_available", "resources": "8", "timestamp": 21365.3}
{"type": "machine_unavailable", "resources": "26", "timestamp": 19586.96}
{"type": "machine_available", "resources": "26", "timestamp": 21386.96}
{"type": "machine_unavailable", "resources": "46", "timestamp": 19588.93}
{"type": "machine_available", "resources": "46", "timestamp": 21388.93}
{"type": "machine_unavailable", "resources": "67", "timestamp": 19589.26}
{"type": "machine_available", "resources": "67", "timestamp": 21389.26}
{"type": "machine_unavailable", "resources": "31", "timestamp": 19598.49}
{"type": "machine_available", "resources": "31", "timestamp": 21398.49}
{"type": "machine_unavailable", "resources": "63", "timestamp": 19645.64}
{"type": "machine_available", "resources": "63", "timestamp": 21445.64}
{"type": "machine_unavailable", "resources": "68", "timestamp": 19660.93}
{"type": "machine_available", "resources": "68", "timestamp": 21460.93}
{"type": "machine_unavailable", "resources": "98", "timestamp": 19713.68}
{"type": "machine_available", "resources": "98", "timestamp": 21513.68}
{"type": "machine_unavailable", "resources": "12", "timestamp": 19762.35}
{"type": "machine_available", "resources": "12", "timestamp": 21562.35}
{"type": "machine_unavailable", "resources": "51", "timestamp": 19844.88}
{"type": "machine_available", "resources": "51", "timestamp": 21644.88}
{"type": "machine_unavailable", "resources": "76", "timestamp": 19899.84}
{"type": "machine_available", "resources": "76", "timestamp": 21699.84}
{"type": "machine_unavailable", "resources": "47", "timestamp": 19904.39}
{"type": "machine_available", "resources": "47", "timestamp": 21704.39}
{"type": "machine_unavailable", "resources": "81", "timestamp": 19925.56}
{"type": "machine_available", "resources": "81", "timestamp": 21725.56}
{"type": "machine_unavailable", "resources": "86", "timestamp": 19956.05}
{"type": "machine_available", "resources": "86", "timestamp": 21756.05}
{"type": "machine_unavailable", "resources": "43", "timestamp": 19967.69}
{"type": "machine_available", "resources": "43", "timestamp": 21767.69}
{"type": "machine_unavailable", "resources": "27", "timestamp": 19974.9}
{"type": "machine_available", "resources": "27", "timestamp": 21774.9}
{"type": "machine_unavailable", "resources": "69", "timestamp": 19976.34}
{"type": "machine_available", "resources": "69", "timestamp": 21776.34}
{"type": "machine_unavailable", "resources": "22", "timestamp": 19987.23}
{"type": "machine_available", "resources": "22", "timestamp": 21787.23}
{"type": "machine_unavailable", "resources": "24", "timestamp": 20000.04}
{"type": "machine_available", "resources": "24", "timestamp": 21800.04}
